BCD/add6/simulation/qsim/add6.msim.vcd
$comment
	File created using the following command:
		vcd file add6.msim.vcd -direction
$end
$date
	Mon Sep 08 11:58:31 2025
$end
$version
	ModelSim Version 10.1d
$end
$timescale
	1ps
$end
$scope module add6_vlg_vec_tst $end
$var reg 4 ! din [3:0] $end
$var wire 1 " cout $end
$var wire 1 # dout [3] $end
$var wire 1 $ dout [2] $end
$var wire 1 % dout [1] $end
$var wire 1 & dout [0] $end
$var wire 1 ' sampler $end
$scope module i1 $end
$var wire 1 ( gnd $end
$var wire 1 ) vcc $end
$var wire 1 * unknown $end
$var tri1 1 + devclrn $end
$var tri1 1 , devpor $end
$var tri1 1 - devoe $end
$var wire 1 . dout[0]~output_o $end
$var wire 1 / dout[1]~output_o $end
$var wire 1 0 dout[2]~output_o $end
$var wire 1 1 dout[3]~output_o $end
$var wire 1 2 cout~output_o $end
$var wire 1 3 din[0]~input_o $end
$var wire 1 4 din[1]~input_o $end
$var wire 1 5 din[2]~input_o $end
$var wire 1 6 Add0~0_combout $end
$var wire 1 7 din[3]~input_o $end
$var wire 1 8 Add0~1_combout $end
$var wire 1 9 Add0~2_combout $end
$upscope $end
$upscope $end
$enddefinitions $end
#0
$dumpvars
b1 !
0"
1&
1%
1$
0#
x'
0(
1)
x*
1+
1,
1-
1.
1/
10
01
02
13
04
05
06
07
08
09
$end
#10000
b11 !
b10 !
14
0'
03
16
0/
0.
0%
0&
18
00
11
0$
1#
#20000
b11 !
1'
13
1.
1&
#30000
b111 !
b101 !
b100 !
04
15
0'
03
1/
0.
1%
0&
#40000
b101 !
1'
13
1.
1&
#50000
b111 !
b110 !
14
0'
03
06
0/
0.
0%
0&
10
1$
#60000
b111 !
1'
13
1.
1&
#70000
b1111 !
b1011 !
b1001 !
b1000 !
04
05
17
0'
03
1/
0.
1%
0&
#80000
b1001 !
1'
13
1.
1&
#90000
b1011 !
b1010 !
14
0'
03
16
0/
0.
0%
0&
19
08
00
12
01
0$
1"
0#
#100000
b1011 !
1'
13
1.
1&
#110000
b1111 !
b1101 !
b1100 !
04
15
0'
03
1/
0.
1%
0&
#120000
b1101 !
1'
13
1.
1&
#130000
b1111 !
b1110 !
14
0'
03
06
0/
0.
0%
0&
10
1$
#140000
b1111 !
1'
13
1.
1&
#150000
b111 !
b11 !
b1 !
b0 !
04
05
07
0'
03
1/
0.
1%
0&
09
02
0"
