count111_improved/simulation/qsim/count111_improved.msim.vcd
$comment
	File created using the following command:
		vcd file count111_improved.msim.vcd -direction
$end
$date
	Thu Jun 26 14:42:07 2025
$end
$version
	ModelSim Version 10.1d
$end
$timescale
	1ps
$end
$scope module count111_improved_vlg_vec_tst $end
$var reg 1 ! clk $end
$var reg 1 " one_in_async $end
$var reg 1 # rst_p $end
$var wire 1 $ result [1] $end
$var wire 1 % result [0] $end
$var wire 1 & sampler $end
$scope module i1 $end
$var wire 1 ' gnd $end
$var wire 1 ( vcc $end
$var wire 1 ) unknown $end
$var tri1 1 * devclrn $end
$var tri1 1 + devpor $end
$var tri1 1 , devoe $end
$var wire 1 - result[0]~output_o $end
$var wire 1 . result[1]~output_o $end
$var wire 1 / clk~input_o $end
$var wire 1 0 clk~inputclkctrl_outclk $end
$var wire 1 1 one_in_async~input_o $end
$var wire 1 2 one_in_meta~feeder_combout $end
$var wire 1 3 rst_p~input_o $end
$var wire 1 4 rst_p~inputclkctrl_outclk $end
$var wire 1 5 one_in_meta~q $end
$var wire 1 6 one_in_sync~q $end
$var wire 1 7 fsm_instance|current.s0~feeder_combout $end
$var wire 1 8 fsm_instance|current.s0~q $end
$var wire 1 9 fsm_instance|next.s1~0_combout $end
$var wire 1 : fsm_instance|current.s1~q $end
$var wire 1 ; fsm_instance|Selector2~0_combout $end
$var wire 1 < fsm_instance|Selector1~0_combout $end
$upscope $end
$upscope $end
$enddefinitions $end
#0
$dumpvars
0!
0"
1#
0%
0$
x&
0'
1(
x)
1*
1+
1,
0-
0.
0/
00
01
02
13
14
05
06
07
08
09
0:
0;
0<
$end
#5000
1!
1/
10
0&
#6577
0#
03
04
1&
#10000
1"
0!
11
0/
00
0&
12
#15000
1!
1/
10
1&
15
#20000
0!
0/
00
0&
#25000
1!
1/
10
1&
16
19
17
1;
1-
1%
#30000
0!
0/
00
0&
#35000
1!
1/
10
1&
1:
18
09
0;
1<
0-
1.
0%
1$
#40000
0"
0!
01
0/
00
0&
02
#45000
1!
1/
10
1&
0:
05
1;
1-
1%
#50000
0!
0/
00
0&
#53338
1"
11
1&
12
#55000
1!
1/
10
0&
06
15
07
0<
0;
0.
0-
0$
0%
#58487
0"
01
1&
02
#60000
0!
0/
00
0&
#65000
1!
1/
10
1&
08
16
05
19
17
1;
1-
1%
#70000
0!
0/
00
0&
#75000
1!
1/
10
1&
1:
18
06
09
07
0;
0-
0%
#80000
0!
0/
00
0&
#84084
1"
11
1&
12
#85000
1!
1/
10
0&
0:
08
15
#90000
0!
0/
00
1&
#95000
1!
1/
10
0&
16
19
17
1;
1-
1%
#98527
0"
01
1&
02
#100000
0!
0/
00
0&
#105000
1!
1/
10
1&
1:
18
05
09
0;
1<
0-
1.
0%
1$
#110000
0!
0/
00
0&
#115000
1!
1/
10
1&
0:
06
07
0<
0.
0$
#120000
0!
0/
00
0&
#125000
1!
1/
10
1&
08
#130000
0!
0/
00
0&
#135000
1!
1/
10
1&
#140000
0!
0/
00
0&
#145000
1!
1/
10
1&
#150000
0!
0/
00
0&
#155000
1!
1/
10
1&
