count111_mealy/simulation/qsim/count111_mealy.msim.vcd
$comment
	File created using the following command:
		vcd file count111_mealy.msim.vcd -direction
$end
$date
	Thu Jun 26 14:28:36 2025
$end
$version
	ModelSim Version 10.1d
$end
$timescale
	1ps
$end
$scope module count111_mealy_vlg_vec_tst $end
$var reg 1 ! clk $end
$var reg 1 " one_in $end
$var reg 1 # rst_p $end
$var wire 1 $ result [1] $end
$var wire 1 % result [0] $end
$var wire 1 & sampler $end
$scope module i1 $end
$var wire 1 ' gnd $end
$var wire 1 ( vcc $end
$var wire 1 ) unknown $end
$var tri1 1 * devclrn $end
$var tri1 1 + devpor $end
$var tri1 1 , devoe $end
$var wire 1 - result[0]~output_o $end
$var wire 1 . result[1]~output_o $end
$var wire 1 / clk~input_o $end
$var wire 1 0 clk~inputclkctrl_outclk $end
$var wire 1 1 one_in~input_o $end
$var wire 1 2 current.s0~feeder_combout $end
$var wire 1 3 rst_p~input_o $end
$var wire 1 4 rst_p~inputclkctrl_outclk $end
$var wire 1 5 current.s0~q $end
$var wire 1 6 next.s1~0_combout $end
$var wire 1 7 current.s1~q $end
$var wire 1 8 Selector2~0_combout $end
$var wire 1 9 Selector1~0_combout $end
$upscope $end
$upscope $end
$enddefinitions $end
#0
$dumpvars
0!
0"
1#
0%
0$
x&
0'
1(
x)
1*
1+
1,
0-
0.
0/
00
01
02
13
14
05
06
07
08
09
$end
#5000
1!
1/
10
0&
#7635
0#
03
04
1&
#10000
1"
0!
11
0/
00
0&
16
12
18
1-
1%
#15000
1!
1/
10
1&
17
15
06
08
19
0-
1.
0%
1$
#20000
0!
0/
00
0&
#25000
1!
1/
10
1&
07
18
1-
1%
#30000
0!
0/
00
0&
#35000
1!
1/
10
1&
#40000
0"
0!
01
0/
00
0&
02
09
08
0.
0-
0$
0%
#45000
1!
1/
10
1&
05
#50000
0!
0/
00
0&
#52456
1"
11
1&
16
12
18
1-
1%
#55000
1!
1/
10
0&
17
15
06
08
19
0-
1.
0%
1$
#58597
0"
01
1&
02
09
0.
0$
#60000
0!
0/
00
0&
#63412
1"
11
1&
12
19
1.
1$
#65000
1!
1/
10
0&
07
18
1-
1%
#70000
0!
0/
00
1&
#75000
1!
1/
10
0&
#77024
0"
01
1&
02
09
08
0.
0-
0$
0%
#80000
0!
0/
00
0&
#85000
1!
1/
10
1&
05
#90000
0!
0/
00
0&
#95000
1!
1/
10
1&
#100000
0!
0/
00
0&
#105000
1!
1/
10
1&
#110000
0!
0/
00
0&
#115000
1!
1/
10
1&
#120000
0!
0/
00
0&
#125000
1!
1/
10
1&
#130000
0!
0/
00
0&
#135000
1!
1/
10
1&
#140000
0!
0/
00
0&
#145000
1!
1/
10
1&
#150000
0!
0/
00
0&
#155000
1!
1/
10
1&
