D_Latchbev/simulation/qsim/D_Latchbev.msim.vcd
$comment
	File created using the following command:
		vcd file D_Latchbev.msim.vcd -direction
$end
$date
	Tue Jun 17 21:22:46 2025
$end
$version
	ModelSim Version 10.1d
$end
$timescale
	1ps
$end
$scope module D_Latchbev_vlg_vec_tst $end
$var reg 1 ! d $end
$var reg 1 " en $end
$var wire 1 # q $end
$var wire 1 $ q_bar $end
$var wire 1 % sampler $end
$scope module i1 $end
$var wire 1 & gnd $end
$var wire 1 ' vcc $end
$var wire 1 ( unknown $end
$var tri1 1 ) devclrn $end
$var tri1 1 * devpor $end
$var tri1 1 + devoe $end
$var wire 1 , q~output_o $end
$var wire 1 - q_bar~output_o $end
$var wire 1 . d~input_o $end
$var wire 1 / en~input_o $end
$var wire 1 0 q$latch~combout $end
$upscope $end
$upscope $end
$enddefinitions $end
#0
$dumpvars
0!
0"
x#
x$
x%
0&
1'
x(
1)
1*
1+
x,
x-
0.
0/
x0
$end
#10000
1"
1/
0%
00
0,
1-
0#
1$
#10050
1!
1.
1%
10
1,
0-
1#
0$
#13350
0!
0.
0%
00
0,
1-
0#
1$
#19350
1!
1.
1%
10
1,
0-
1#
0$
#24900
0!
0.
0%
00
0,
1-
0#
1$
#29250
1!
1.
1%
10
1,
0-
1#
0$
#30150
0!
0.
0%
00
0,
1-
0#
1$
#37500
1!
1.
1%
10
1,
0-
1#
0$
#40000
0"
0/
0%
#45900
0!
0.
1%
