D_Latch/simulation/qsim/D_Latch.msim.vcd
$comment
	File created using the following command:
		vcd file D_Latch.msim.vcd -direction
$end
$date
	Sat Jun 14 15:35:26 2025
$end
$version
	ModelSim Version 10.1d
$end
$timescale
	1ps
$end
$scope module D_Latch_vlg_vec_tst $end
$var reg 1 ! d $end
$var reg 1 " en $end
$var wire 1 # q $end
$var wire 1 $ q_bar $end
$var wire 1 % sampler $end
$scope module i1 $end
$var wire 1 & gnd $end
$var wire 1 ' vcc $end
$var wire 1 ( unknown $end
$var tri1 1 ) devclrn $end
$var tri1 1 * devpor $end
$var tri1 1 + devoe $end
$var wire 1 , q~output_o $end
$var wire 1 - q_bar~output_o $end
$var wire 1 . d~input_o $end
$var wire 1 / en~input_o $end
$var wire 1 0 comb_6|q_bar~1_combout $end
$var wire 1 1 comb_6|q~0_combout $end
$upscope $end
$upscope $end
$enddefinitions $end
#0
$dumpvars
0!
0"
x#
x$
x%
0&
1'
x(
1)
1*
1+
x,
x-
0.
0/
x0
x1
$end
#2000
1!
1"
1.
1/
0%
10
11
0-
1,
0$
1#
#4000
0!
0.
1%
00
1-
1$
01
0,
0#
#8000
1!
1.
0%
10
11
0-
1,
0$
1#
#12000
0"
0!
0/
0.
1%
#19998
1!
1.
0%
#20000
1"
1/
1%
#20691
0!
0.
0%
00
1-
1$
01
0,
0#
#21285
1!
1.
1%
10
11
0-
1,
0$
1#
#22440
0!
0.
0%
00
1-
1$
01
0,
0#
#23859
1!
1.
1%
10
11
0-
1,
0$
1#
#26000
0"
0/
0%
#26432
0!
0.
1%
