FSM/simulation/qsim/FSM.msim.vcd
$comment
	File created using the following command:
		vcd file FSM.msim.vcd -direction
$end
$date
	Tue Jun 24 22:48:30 2025
$end
$version
	ModelSim Version 10.1d
$end
$timescale
	1ps
$end
$scope module FSM_vlg_vec_tst $end
$var reg 1 ! button $end
$var reg 1 " clk $end
$var reg 1 # rst_n $end
$var wire 1 $ door_action $end
$var wire 1 % sampler $end
$scope module i1 $end
$var wire 1 & gnd $end
$var wire 1 ' vcc $end
$var wire 1 ( unknown $end
$var tri1 1 ) devclrn $end
$var tri1 1 * devpor $end
$var tri1 1 + devoe $end
$var wire 1 , clk~input_o $end
$var wire 1 - rst_n~input_o $end
$var wire 1 . door_action~output_o $end
$var wire 1 / button~input_o $end
$upscope $end
$upscope $end
$enddefinitions $end
#0
$dumpvars
0!
0"
0#
0$
x%
0&
1'
x(
1)
1*
1+
0,
0-
0.
0/
$end
#5000
1"
1,
0%
#10000
1!
0"
0,
1%
1/
1.
1$
#15000
1"
1,
0%
#20000
0"
0,
1%
#25000
1"
1,
0%
#30000
1#
0"
1-
0,
1%
#35000
1"
1,
0%
#40000
0#
0"
0-
0,
1%
#45000
1"
1,
0%
#50000
0!
0"
0,
1%
0/
0.
0$
#55000
1"
1,
0%
#60000
1!
0"
0,
1%
1/
1.
1$
#65000
1"
1,
0%
#70000
0!
0"
0,
1%
0/
0.
0$
#75000
1"
1,
0%
#80000
0"
0,
1%
#85000
1"
1,
0%
#90000
0"
0,
1%
#95000
1"
1,
0%
#100000
0"
0,
1%
#105000
1"
1,
0%
#110000
0"
0,
1%
#115000
1"
1,
0%
#120000
0"
0,
1%
#125000
1"
1,
0%
#130000
0"
0,
1%
#135000
1"
1,
0%
#140000
0"
0,
1%
#145000
1"
1,
0%
#150000
0"
0,
1%
#155000
1"
1,
0%
#160000
0"
0,
1%
#165000
1"
1,
0%
#170000
0"
0,
1%
#175000
1"
1,
0%
#180000
0"
0,
1%
#185000
1"
1,
0%
#190000
0"
0,
1%
#195000
1"
1,
0%
