Freq_div/D_FF/simulation/qsim/D_FF.msim.vcd
$comment
	File created using the following command:
		vcd file D_FF.msim.vcd -direction
$end
$date
	Fri Jun 20 11:38:59 2025
$end
$version
	ModelSim Version 10.1d
$end
$timescale
	1ps
$end
$scope module D_FF_vlg_vec_tst $end
$var reg 1 ! clk $end
$var reg 8 " din [7:0] $end
$var reg 1 # en $end
$var reg 1 $ rst $end
$var wire 1 % dout [7] $end
$var wire 1 & dout [6] $end
$var wire 1 ' dout [5] $end
$var wire 1 ( dout [4] $end
$var wire 1 ) dout [3] $end
$var wire 1 * dout [2] $end
$var wire 1 + dout [1] $end
$var wire 1 , dout [0] $end
$var wire 1 - sampler $end
$scope module i1 $end
$var wire 1 . gnd $end
$var wire 1 / vcc $end
$var wire 1 0 unknown $end
$var tri1 1 1 devclrn $end
$var tri1 1 2 devpor $end
$var tri1 1 3 devoe $end
$var wire 1 4 dout[0]~output_o $end
$var wire 1 5 dout[1]~output_o $end
$var wire 1 6 dout[2]~output_o $end
$var wire 1 7 dout[3]~output_o $end
$var wire 1 8 dout[4]~output_o $end
$var wire 1 9 dout[5]~output_o $end
$var wire 1 : dout[6]~output_o $end
$var wire 1 ; dout[7]~output_o $end
$var wire 1 < clk~input_o $end
$var wire 1 = clk~inputclkctrl_outclk $end
$var wire 1 > rst~input_o $end
$var wire 1 ? din[0]~input_o $end
$var wire 1 @ dout~0_combout $end
$var wire 1 A en~input_o $end
$var wire 1 B dout[0]~1_combout $end
$var wire 1 C dout[0]~reg0_q $end
$var wire 1 D din[1]~input_o $end
$var wire 1 E dout~2_combout $end
$var wire 1 F dout[1]~reg0_q $end
$var wire 1 G din[2]~input_o $end
$var wire 1 H dout~3_combout $end
$var wire 1 I dout[2]~reg0_q $end
$var wire 1 J din[3]~input_o $end
$var wire 1 K dout~4_combout $end
$var wire 1 L dout[3]~reg0_q $end
$var wire 1 M din[4]~input_o $end
$var wire 1 N dout~5_combout $end
$var wire 1 O dout[4]~reg0_q $end
$var wire 1 P din[5]~input_o $end
$var wire 1 Q dout~6_combout $end
$var wire 1 R dout[5]~reg0_q $end
$var wire 1 S din[6]~input_o $end
$var wire 1 T dout~7_combout $end
$var wire 1 U dout[6]~reg0_q $end
$var wire 1 V din[7]~input_o $end
$var wire 1 W dout~8_combout $end
$var wire 1 X dout[7]~reg0_q $end
$upscope $end
$upscope $end
$enddefinitions $end
#0
$dumpvars
0!
b0 "
1#
1$
0,
0+
0*
0)
0(
0'
0&
0%
x-
0.
1/
x0
11
12
13
04
05
06
07
08
09
0:
0;
0<
0=
1>
0?
0@
1A
1B
0C
0D
0E
0F
0G
0H
0I
0J
0K
0L
0M
0N
0O
0P
0Q
0R
0S
0T
0U
0V
0W
0X
$end
#2500
1!
1<
1=
0-
#5000
0!
0<
0=
1-
#5066
b10000000 "
b11000000 "
1S
1V
0-
1T
1W
#7301
b1000000 "
b0 "
0S
0V
1-
0T
0W
#7500
1!
1<
1=
0-
#10000
0!
0<
0=
1-
#12500
1!
1<
1=
0-
#12962
b100000 "
b110000 "
1M
1P
1-
1N
1Q
#15000
0!
0<
0=
0-
#17500
1!
1<
1=
1-
1R
1O
19
18
1'
1(
#20000
0!
0<
0=
0-
#22500
1!
1<
1=
1-
#22946
b10000 "
b0 "
0M
0P
0-
0N
0Q
#25000
0!
0<
0=
1-
#27500
1!
1<
1=
0-
0R
0O
09
08
0'
0(
#27565
b1000 "
1J
1-
1K
#28905
b0 "
0J
0-
0K
#30000
0$
0!
0>
0<
0=
1-
#31439
b100 "
1G
0-
#32500
1!
1<
1=
1-
#33078
b0 "
0G
0-
#35000
0!
0<
0=
1-
#37500
1!
1<
1=
0-
#40000
1$
0!
1>
0<
0=
1-
#42500
1!
1<
1=
0-
#45000
0!
0<
0=
1-
#47500
1!
1<
1=
0-
#50000
0!
0<
0=
1-
#52500
1!
1<
1=
0-
#55000
0!
0<
0=
1-
#57500
1!
1<
1=
0-
#60000
0!
0<
0=
1-
#62500
1!
1<
1=
0-
#65000
0!
0<
0=
1-
#67500
1!
1<
1=
0-
#70000
0!
0<
0=
1-
#72500
1!
1<
1=
0-
#75000
0!
0<
0=
1-
#77500
1!
1<
1=
0-
#80000
0!
0<
0=
1-
#82500
1!
1<
1=
0-
#85000
0!
0<
0=
1-
#87500
1!
1<
1=
0-
#90000
0!
0<
0=
1-
#92500
1!
1<
1=
0-
#95000
0!
0<
0=
1-
#97500
1!
1<
1=
0-
#100000
0!
0<
0=
1-
#102500
1!
1<
1=
0-
#105000
0!
0<
0=
1-
#107500
1!
1<
1=
0-
#110000
0!
0<
0=
1-
#112500
1!
1<
1=
0-
#115000
0!
0<
0=
1-
#117500
1!
1<
1=
0-
#120000
0!
0<
0=
1-
#122500
1!
1<
1=
0-
#125000
0!
0<
0=
1-
#127500
1!
1<
1=
0-
#130000
0!
0<
0=
1-
#132500
1!
1<
1=
0-
#135000
0!
0<
0=
1-
#137500
1!
1<
1=
0-
#140000
0!
0<
0=
1-
#142500
1!
1<
1=
0-
#145000
0!
0<
0=
1-
#147500
1!
1<
1=
0-
#150000
0!
0<
0=
1-
#152500
1!
1<
1=
0-
#155000
0!
0<
0=
1-
#157500
1!
1<
1=
0-
