Freq_div/D_FF32bit/simulation/qsim/D_FF32bit.msim.vcd
$comment
	File created using the following command:
		vcd file D_FF32bit.msim.vcd -direction
$end
$date
	Sun Jun 22 16:04:46 2025
$end
$version
	ModelSim Version 10.1d
$end
$timescale
	1ps
$end
$scope module D_FF32bit_vlg_vec_tst $end
$var reg 1 ! clk $end
$var reg 32 " din [31:0] $end
$var reg 1 # en $end
$var reg 1 $ rst $end
$var wire 1 % dout [31] $end
$var wire 1 & dout [30] $end
$var wire 1 ' dout [29] $end
$var wire 1 ( dout [28] $end
$var wire 1 ) dout [27] $end
$var wire 1 * dout [26] $end
$var wire 1 + dout [25] $end
$var wire 1 , dout [24] $end
$var wire 1 - dout [23] $end
$var wire 1 . dout [22] $end
$var wire 1 / dout [21] $end
$var wire 1 0 dout [20] $end
$var wire 1 1 dout [19] $end
$var wire 1 2 dout [18] $end
$var wire 1 3 dout [17] $end
$var wire 1 4 dout [16] $end
$var wire 1 5 dout [15] $end
$var wire 1 6 dout [14] $end
$var wire 1 7 dout [13] $end
$var wire 1 8 dout [12] $end
$var wire 1 9 dout [11] $end
$var wire 1 : dout [10] $end
$var wire 1 ; dout [9] $end
$var wire 1 < dout [8] $end
$var wire 1 = dout [7] $end
$var wire 1 > dout [6] $end
$var wire 1 ? dout [5] $end
$var wire 1 @ dout [4] $end
$var wire 1 A dout [3] $end
$var wire 1 B dout [2] $end
$var wire 1 C dout [1] $end
$var wire 1 D dout [0] $end
$var wire 1 E sampler $end
$scope module i1 $end
$var wire 1 F gnd $end
$var wire 1 G vcc $end
$var wire 1 H unknown $end
$var tri1 1 I devclrn $end
$var tri1 1 J devpor $end
$var tri1 1 K devoe $end
$var wire 1 L dout[0]~output_o $end
$var wire 1 M dout[1]~output_o $end
$var wire 1 N dout[2]~output_o $end
$var wire 1 O dout[3]~output_o $end
$var wire 1 P dout[4]~output_o $end
$var wire 1 Q dout[5]~output_o $end
$var wire 1 R dout[6]~output_o $end
$var wire 1 S dout[7]~output_o $end
$var wire 1 T dout[8]~output_o $end
$var wire 1 U dout[9]~output_o $end
$var wire 1 V dout[10]~output_o $end
$var wire 1 W dout[11]~output_o $end
$var wire 1 X dout[12]~output_o $end
$var wire 1 Y dout[13]~output_o $end
$var wire 1 Z dout[14]~output_o $end
$var wire 1 [ dout[15]~output_o $end
$var wire 1 \ dout[16]~output_o $end
$var wire 1 ] dout[17]~output_o $end
$var wire 1 ^ dout[18]~output_o $end
$var wire 1 _ dout[19]~output_o $end
$var wire 1 ` dout[20]~output_o $end
$var wire 1 a dout[21]~output_o $end
$var wire 1 b dout[22]~output_o $end
$var wire 1 c dout[23]~output_o $end
$var wire 1 d dout[24]~output_o $end
$var wire 1 e dout[25]~output_o $end
$var wire 1 f dout[26]~output_o $end
$var wire 1 g dout[27]~output_o $end
$var wire 1 h dout[28]~output_o $end
$var wire 1 i dout[29]~output_o $end
$var wire 1 j dout[30]~output_o $end
$var wire 1 k dout[31]~output_o $end
$var wire 1 l clk~input_o $end
$var wire 1 m clk~inputclkctrl_outclk $end
$var wire 1 n din[0]~input_o $end
$var wire 1 o rst~input_o $end
$var wire 1 p dout~0_combout $end
$var wire 1 q en~input_o $end
$var wire 1 r dout[0]~1_combout $end
$var wire 1 s dout[0]~reg0_q $end
$var wire 1 t din[1]~input_o $end
$var wire 1 u dout~2_combout $end
$var wire 1 v dout[1]~reg0_q $end
$var wire 1 w din[2]~input_o $end
$var wire 1 x dout~3_combout $end
$var wire 1 y dout[2]~reg0_q $end
$var wire 1 z din[3]~input_o $end
$var wire 1 { dout~4_combout $end
$var wire 1 | dout[3]~reg0_q $end
$var wire 1 } din[4]~input_o $end
$var wire 1 ~ dout~5_combout $end
$var wire 1 !! dout[4]~reg0_q $end
$var wire 1 "! din[5]~input_o $end
$var wire 1 #! dout~6_combout $end
$var wire 1 $! dout[5]~reg0_q $end
$var wire 1 %! din[6]~input_o $end
$var wire 1 &! dout~7_combout $end
$var wire 1 '! dout[6]~reg0_q $end
$var wire 1 (! din[7]~input_o $end
$var wire 1 )! dout~8_combout $end
$var wire 1 *! dout[7]~reg0_q $end
$var wire 1 +! din[8]~input_o $end
$var wire 1 ,! dout~9_combout $end
$var wire 1 -! dout[8]~reg0_q $end
$var wire 1 .! din[9]~input_o $end
$var wire 1 /! dout~10_combout $end
$var wire 1 0! dout[9]~reg0_q $end
$var wire 1 1! din[10]~input_o $end
$var wire 1 2! dout~11_combout $end
$var wire 1 3! dout[10]~reg0_q $end
$var wire 1 4! din[11]~input_o $end
$var wire 1 5! dout~12_combout $end
$var wire 1 6! dout[11]~reg0_q $end
$var wire 1 7! din[12]~input_o $end
$var wire 1 8! dout~13_combout $end
$var wire 1 9! dout[12]~reg0_q $end
$var wire 1 :! din[13]~input_o $end
$var wire 1 ;! dout~14_combout $end
$var wire 1 <! dout[13]~reg0_q $end
$var wire 1 =! din[14]~input_o $end
$var wire 1 >! dout~15_combout $end
$var wire 1 ?! dout[14]~reg0_q $end
$var wire 1 @! din[15]~input_o $end
$var wire 1 A! dout~16_combout $end
$var wire 1 B! dout[15]~reg0_q $end
$var wire 1 C! din[16]~input_o $end
$var wire 1 D! dout~17_combout $end
$var wire 1 E! dout[16]~reg0_q $end
$var wire 1 F! din[17]~input_o $end
$var wire 1 G! dout~18_combout $end
$var wire 1 H! dout[17]~reg0_q $end
$var wire 1 I! din[18]~input_o $end
$var wire 1 J! dout~19_combout $end
$var wire 1 K! dout[18]~reg0_q $end
$var wire 1 L! din[19]~input_o $end
$var wire 1 M! dout~20_combout $end
$var wire 1 N! dout[19]~reg0_q $end
$var wire 1 O! din[20]~input_o $end
$var wire 1 P! dout~21_combout $end
$var wire 1 Q! dout[20]~reg0_q $end
$var wire 1 R! din[21]~input_o $end
$var wire 1 S! dout~22_combout $end
$var wire 1 T! dout[21]~reg0_q $end
$var wire 1 U! din[22]~input_o $end
$var wire 1 V! dout~23_combout $end
$var wire 1 W! dout[22]~reg0_q $end
$var wire 1 X! din[23]~input_o $end
$var wire 1 Y! dout~24_combout $end
$var wire 1 Z! dout[23]~reg0_q $end
$var wire 1 [! din[24]~input_o $end
$var wire 1 \! dout~25_combout $end
$var wire 1 ]! dout[24]~reg0_q $end
$var wire 1 ^! din[25]~input_o $end
$var wire 1 _! dout~26_combout $end
$var wire 1 `! dout[25]~reg0_q $end
$var wire 1 a! din[26]~input_o $end
$var wire 1 b! dout~27_combout $end
$var wire 1 c! dout[26]~reg0_q $end
$var wire 1 d! din[27]~input_o $end
$var wire 1 e! dout~28_combout $end
$var wire 1 f! dout[27]~reg0_q $end
$var wire 1 g! din[28]~input_o $end
$var wire 1 h! dout~29_combout $end
$var wire 1 i! dout[28]~reg0_q $end
$var wire 1 j! din[29]~input_o $end
$var wire 1 k! dout~30_combout $end
$var wire 1 l! dout[29]~reg0_q $end
$var wire 1 m! din[30]~input_o $end
$var wire 1 n! dout~31_combout $end
$var wire 1 o! dout[30]~reg0_q $end
$var wire 1 p! din[31]~input_o $end
$var wire 1 q! dout~32_combout $end
$var wire 1 r! dout[31]~reg0_q $end
$upscope $end
$upscope $end
$enddefinitions $end
#0
$dumpvars
0!
b0 "
1#
0$
0D
0C
0B
0A
0@
0?
0>
0=
0<
0;
0:
09
08
07
06
05
04
03
02
01
00
0/
0.
0-
0,
0+
0*
0)
0(
0'
0&
0%
xE
0F
1G
xH
1I
1J
1K
0L
0M
0N
0O
0P
0Q
0R
0S
0T
0U
0V
0W
0X
0Y
0Z
0[
0\
0]
0^
0_
0`
0a
0b
0c
0d
0e
0f
0g
0h
0i
0j
0k
0l
0m
0n
0o
0p
1q
1r
0s
0t
0u
0v
0w
0x
0y
0z
0{
0|
0}
0~
0!!
0"!
0#!
0$!
0%!
0&!
0'!
0(!
0)!
0*!
0+!
0,!
0-!
0.!
0/!
00!
01!
02!
03!
04!
05!
06!
07!
08!
09!
0:!
0;!
0<!
0=!
0>!
0?!
0@!
0A!
0B!
0C!
0D!
0E!
0F!
0G!
0H!
0I!
0J!
0K!
0L!
0M!
0N!
0O!
0P!
0Q!
0R!
0S!
0T!
0U!
0V!
0W!
0X!
0Y!
0Z!
0[!
0\!
0]!
0^!
0_!
0`!
0a!
0b!
0c!
0d!
0e!
0f!
0g!
0h!
0i!
0j!
0k!
0l!
0m!
0n!
0o!
0p!
0q!
0r!
$end
#2500
1!
1l
1m
0E
#5000
0!
0l
0m
1E
#7500
1!
1l
1m
0E
#9295
b1000000000000000000000000000000 "
b1100000000000000000000000000000 "
1j!
1m!
1E
1k!
1n!
#10000
0!
0l
0m
0E
#11725
b100000000000000000000000000000 "
b0 "
0j!
0m!
1E
0k!
0n!
#12500
1!
1l
1m
0E
#14300
b10000000000000000000000000000 "
b110000000000000000000000000000 "
1g!
1j!
1E
1h!
1k!
#15000
0!
0l
0m
0E
#17500
1!
1l
1m
1E
1l!
1i!
1i
1h
1'
1(
#19305
b100000000000000000000000000000 "
b0 "
0g!
0j!
0E
0h!
0k!
#20000
1$
0!
1o
0l
0m
1E
#21879
b1000000000000000000000000000 "
b11000000000000000000000000000 "
b111000000000000000000000000000 "
1d!
1g!
1j!
0E
#22500
1!
1l
1m
1E
0l!
0i!
0i
0h
0'
0(
#25000
0!
0l
0m
0E
#27500
1!
1l
1m
1E
#28886
b110000000000000000000000000000 "
b100000000000000000000000000000 "
b0 "
0d!
0g!
0j!
0E
#30000
0$
0!
0o
0l
0m
1E
#32500
1!
1l
1m
0E
#35000
0!
0l
0m
1E
#36179
b1000000000000000000000000000 "
b11000000000000000000000000000 "
b111000000000000000000000000000 "
1d!
1g!
1j!
0E
1e!
1h!
1k!
#37500
1!
1l
1m
1E
1l!
1i!
1f!
1i
1h
1g
1'
1(
1)
#40000
0!
0l
0m
0E
#42500
1!
1l
1m
1E
#45000
0!
0l
0m
0E
#47500
1!
1l
1m
1E
#50000
0!
0l
0m
0E
#52052
b110000000000000000000000000000 "
b100000000000000000000000000000 "
b0 "
0d!
0g!
0j!
1E
0e!
0h!
0k!
#52500
1!
1l
1m
0E
0l!
0i!
0f!
0i
0h
0g
0'
0(
0)
#55000
0!
0l
0m
1E
#57500
1!
1l
1m
0E
#60000
0!
0l
0m
1E
#62500
1!
1l
1m
0E
#65000
0!
0l
0m
1E
#67500
1!
1l
1m
0E
#70000
0!
0l
0m
1E
#72500
1!
1l
1m
0E
#75000
0!
0l
0m
1E
#77500
1!
1l
1m
0E
#80000
0!
0l
0m
1E
#82500
1!
1l
1m
0E
#85000
0!
0l
0m
1E
#87500
1!
1l
1m
0E
#90000
0!
0l
0m
1E
#92500
1!
1l
1m
0E
#95000
0!
0l
0m
1E
#97500
1!
1l
1m
0E
#100000
0!
0l
0m
1E
#102500
1!
1l
1m
0E
#105000
0!
0l
0m
1E
#107500
1!
1l
1m
0E
#110000
0!
0l
0m
1E
#112500
1!
1l
1m
0E
#115000
0!
0l
0m
1E
#117500
1!
1l
1m
0E
#120000
0!
0l
0m
1E
#122500
1!
1l
1m
0E
#125000
0!
0l
0m
1E
#127500
1!
1l
1m
0E
#130000
0!
0l
0m
1E
#132500
1!
1l
1m
0E
#135000
0!
0l
0m
1E
#137500
1!
1l
1m
0E
#140000
0!
0l
0m
1E
#142500
1!
1l
1m
0E
#145000
0!
0l
0m
1E
#147500
1!
1l
1m
0E
#150000
0!
0l
0m
1E
#152500
1!
1l
1m
0E
#155000
0!
0l
0m
1E
#157500
1!
1l
1m
0E
