traffic_light_mooreversion/simulation/qsim/traffic_light_mooreversion.msim.vcd
$comment
	File created using the following command:
		vcd file traffic_light_mooreversion.msim.vcd -direction
$end
$date
	Sat Sep 13 11:10:21 2025
$end
$version
	ModelSim Version 10.1d
$end
$timescale
	1ps
$end
$scope module traffic_light_mooreversion_vlg_vec_tst $end
$var reg 1 ! clk $end
$var reg 1 " rst $end
$var wire 1 # count [3] $end
$var wire 1 $ count [2] $end
$var wire 1 % count [1] $end
$var wire 1 & count [0] $end
$var wire 1 ' lightA [2] $end
$var wire 1 ( lightA [1] $end
$var wire 1 ) lightA [0] $end
$var wire 1 * lightB [2] $end
$var wire 1 + lightB [1] $end
$var wire 1 , lightB [0] $end
$var wire 1 - sampler $end
$scope module i1 $end
$var wire 1 . gnd $end
$var wire 1 / vcc $end
$var wire 1 0 unknown $end
$var tri1 1 1 devclrn $end
$var tri1 1 2 devpor $end
$var tri1 1 3 devoe $end
$var wire 1 4 count[0]~output_o $end
$var wire 1 5 count[1]~output_o $end
$var wire 1 6 count[2]~output_o $end
$var wire 1 7 count[3]~output_o $end
$var wire 1 8 lightA[0]~output_o $end
$var wire 1 9 lightA[1]~output_o $end
$var wire 1 : lightA[2]~output_o $end
$var wire 1 ; lightB[0]~output_o $end
$var wire 1 < lightB[1]~output_o $end
$var wire 1 = lightB[2]~output_o $end
$var wire 1 > clk~input_o $end
$var wire 1 ? clk~inputclkctrl_outclk $end
$var wire 1 @ Add0~0_combout $end
$var wire 1 A Selector5~0_combout $end
$var wire 1 B rst~input_o $end
$var wire 1 C rst~inputclkctrl_outclk $end
$var wire 1 D current_state.s1~q $end
$var wire 1 E Add0~1_combout $end
$var wire 1 F Selector1~0_combout $end
$var wire 1 G count[2]~reg0_q $end
$var wire 1 H Selector6~0_combout $end
$var wire 1 I Selector6~1_combout $end
$var wire 1 J current_state.s2~q $end
$var wire 1 K count[1]~0_combout $end
$var wire 1 L Selector2~0_combout $end
$var wire 1 M count[1]~reg0_q $end
$var wire 1 N LessThan1~0_combout $end
$var wire 1 O Selector7~1_combout $end
$var wire 1 P current_state.s3~q $end
$var wire 1 Q Selector4~0_combout $end
$var wire 1 R current_state.s0~q $end
$var wire 1 S Add0~2_combout $end
$var wire 1 T Selector0~0_combout $end
$var wire 1 U count[3]~reg0_q $end
$var wire 1 V Selector7~0_combout $end
$var wire 1 W Selector3~1_combout $end
$var wire 1 X Selector3~0_combout $end
$var wire 1 Y Selector3~2_combout $end
$var wire 1 Z count[0]~reg0_q $end
$var wire 1 [ lightA~0_combout $end
$upscope $end
$upscope $end
$enddefinitions $end
#0
$dumpvars
0!
1"
1&
0%
0$
0#
1)
0(
0'
0,
0+
1*
x-
0.
1/
x0
11
12
13
14
05
06
07
18
09
0:
0;
0<
1=
0>
0?
1@
0A
1B
1C
0D
0E
0F
0G
0H
0I
0J
0K
1L
0M
1N
0O
0P
0Q
0R
0S
0T
0U
0V
0W
0X
1Y
0Z
1[
$end
#5000
1!
1>
1?
0-
#10000
0"
0!
0B
0>
0C
0?
1-
#15000
1!
1>
1?
0-
1Z
1M
1W
04
15
0&
1%
0Y
#20000
0!
0>
0?
1-
#25000
1!
1>
1?
0-
0Z
0W
0N
1E
0@
14
1&
1Y
1F
0L
#30000
0!
0>
0?
1-
#35000
1!
1>
1?
0-
1Z
0M
1G
1W
04
05
16
0&
0%
1$
0Y
#40000
0!
0>
0?
1-
#45000
1!
1>
1?
0-
0Z
0W
1@
14
1&
1Y
1L
#50000
0!
0>
0?
1-
#55000
1!
1>
1?
0-
1Z
1M
1W
04
15
0&
1%
0Y
#60000
0!
0>
0?
1-
#65000
1!
1>
1?
0-
0Z
0W
1S
0E
0@
14
1&
1Y
1T
0F
0L
#70000
0!
0>
0?
1-
#75000
1!
1>
1?
0-
1Z
1U
0M
0G
1W
0T
1Q
1A
04
17
05
06
0&
1#
0%
0$
0Y
#80000
0!
0>
0?
1-
#85000
1!
1>
1?
0-
0Z
1R
0U
1D
1X
0W
0S
1N
1@
0A
1I
14
08
07
19
1&
0)
0#
1(
0X
1K
0I
1A
1Y
1L
#90000
0!
0>
0?
1-
#95000
1!
1>
1?
0-
1Z
1M
1X
04
15
0&
1%
0Y
#100000
0!
0>
0?
1-
#105000
1!
1>
1?
0-
0Z
0X
0N
1E
0@
14
1&
1Y
1X
0K
1I
0A
1F
0L
0Y
0F
#110000
0!
0>
0?
1-
#115000
1!
1>
1?
0-
0M
1J
0D
1N
1H
0E
1@
0X
0I
05
1;
09
0%
1,
0(
0[
1K
1I
1Y
0=
1:
0*
1'
1L
#120000
0!
0>
0?
1-
#125000
1!
1>
1?
0-
1Z
1M
1W
04
15
0&
1%
0Y
#130000
0!
0>
0?
1-
#135000
1!
1>
1?
0-
0Z
0W
0N
1E
0@
14
1&
1Y
1F
0L
#140000
0!
0>
0?
1-
#145000
1!
1>
1?
0-
1Z
0M
1G
1W
04
05
16
0&
0%
1$
0Y
#150000
0!
0>
0?
1-
#155000
1!
1>
1?
0-
0Z
0W
1@
14
1&
1Y
1L
#160000
0!
0>
0?
1-
#165000
1!
1>
1?
0-
1Z
1M
1W
04
15
0&
1%
0Y
#170000
0!
0>
0?
1-
#175000
1!
1>
1?
0-
0Z
0W
1S
0E
0@
14
1&
1Y
1T
0F
0L
#180000
0!
0>
0?
1-
#185000
1!
1>
1?
0-
1Z
1U
0M
0G
1W
04
17
05
06
0&
1#
0%
0$
0Y
#190000
0!
0>
0?
1-
#195000
1!
1>
1?
0-
0Z
0W
1@
14
1&
1Y
1L
#200000
0!
0>
0?
1-
#205000
1!
1>
1?
0-
1Z
1M
1W
1V
0H
04
15
0&
1%
0Y
1O
0K
0I
0T
0L
#210000
0!
0>
0?
1-
#215000
1!
1>
1?
0-
0Z
0U
1P
0M
0J
1X
0W
0S
1N
0V
0Q
14
07
1<
05
0;
1&
0#
1+
0%
0,
0X
1Q
1K
1Y
1L
#220000
0!
0>
0?
1-
#225000
1!
1>
1?
0-
1Z
1M
1X
04
15
0&
1%
0Y
#230000
0!
0>
0?
1-
#235000
1!
1>
1?
0-
0Z
0X
0N
1E
0@
14
1&
1Y
1X
0Q
0O
0K
1F
0L
0Y
0F
#240000
0!
0>
0?
1-
#245000
1!
1>
1?
0-
0R
0P
0M
1F
0X
1N
0E
1@
18
0<
05
1)
0+
0%
1[
1Y
0F
1L
1=
0:
1*
0'
#250000
0!
0>
0?
1-
#255000
1!
1>
1?
0-
1Z
1M
1W
04
15
0&
1%
0Y
#260000
0!
0>
0?
1-
#265000
1!
1>
1?
0-
0Z
0W
0N
1E
0@
14
1&
1Y
1F
0L
#270000
0!
0>
0?
1-
#275000
1!
1>
1?
0-
1Z
0M
1G
1W
04
05
16
0&
0%
1$
0Y
#280000
0!
0>
0?
1-
#285000
1!
1>
1?
0-
0Z
0W
1@
14
1&
1Y
1L
#290000
0!
0>
0?
1-
#295000
1!
1>
1?
0-
1Z
1M
1W
04
15
0&
1%
0Y
#300000
0!
0>
0?
1-
#305000
1!
1>
1?
0-
0Z
0W
1S
0E
0@
14
1&
1Y
1T
0F
0L
#310000
0!
0>
0?
1-
#315000
1!
1>
1?
0-
1Z
1U
0M
0G
1W
0T
1Q
1A
04
17
05
06
0&
1#
0%
0$
0Y
#320000
0!
0>
0?
1-
#325000
1!
1>
1?
0-
0Z
1R
0U
1D
1X
0W
0S
1N
1@
0A
1I
14
08
07
19
1&
0)
0#
1(
0X
1K
0I
1A
1Y
1L
#330000
0!
0>
0?
1-
#335000
1!
1>
1?
0-
1Z
1M
1X
04
15
0&
1%
0Y
#340000
0!
0>
0?
1-
#345000
1!
1>
1?
0-
0Z
0X
0N
1E
0@
14
1&
1Y
1X
0K
1I
0A
1F
0L
0Y
0F
#350000
0!
0>
0?
1-
#355000
1!
1>
1?
0-
0M
1J
0D
1N
1H
0E
1@
0X
0I
05
1;
09
0%
1,
0(
0[
1K
1I
1Y
0=
1:
0*
1'
1L
#360000
0!
0>
0?
1-
#365000
1!
1>
1?
0-
1Z
1M
1W
04
15
0&
1%
0Y
#370000
0!
0>
0?
1-
#375000
1!
1>
1?
0-
0Z
0W
0N
1E
0@
14
1&
1Y
1F
0L
#380000
0!
0>
0?
1-
#385000
1!
1>
1?
0-
1Z
0M
1G
1W
04
05
16
0&
0%
1$
0Y
#390000
0!
0>
0?
1-
#395000
1!
1>
1?
0-
0Z
0W
1@
14
1&
1Y
1L
#400000
0!
0>
0?
1-
#405000
1!
1>
1?
0-
1Z
1M
1W
04
15
0&
1%
0Y
#410000
0!
0>
0?
1-
#415000
1!
1>
1?
0-
0Z
0W
1S
0E
0@
14
1&
1Y
1T
0F
0L
#420000
0!
0>
0?
1-
#425000
1!
1>
1?
0-
1Z
1U
0M
0G
1W
04
17
05
06
0&
1#
0%
0$
0Y
#430000
0!
0>
0?
1-
#435000
1!
1>
1?
0-
0Z
0W
1@
14
1&
1Y
1L
#440000
0!
0>
0?
1-
#445000
1!
1>
1?
0-
1Z
1M
1W
1V
0H
04
15
0&
1%
0Y
1O
0K
0I
0T
0L
#450000
0!
0>
0?
1-
#455000
1!
1>
1?
0-
0Z
0U
1P
0M
0J
1X
0W
0S
1N
0V
0Q
14
07
1<
05
0;
1&
0#
1+
0%
0,
0X
1Q
1K
1Y
1L
#460000
0!
0>
0?
1-
#465000
1!
1>
1?
0-
1Z
1M
1X
04
15
0&
1%
0Y
#470000
0!
0>
0?
1-
#475000
1!
1>
1?
0-
0Z
0X
0N
1E
0@
14
1&
1Y
1X
0Q
0O
0K
1F
0L
0Y
0F
#480000
0!
0>
0?
1-
#485000
1!
1>
1?
0-
0R
0P
0M
1F
0X
1N
0E
1@
18
0<
05
1)
0+
0%
1[
1Y
0F
1L
1=
0:
1*
0'
#490000
0!
0>
0?
1-
#495000
1!
1>
1?
0-
1Z
1M
1W
04
15
0&
1%
0Y
#500000
0!
0>
0?
1-
#505000
1!
1>
1?
0-
0Z
0W
0N
1E
0@
14
1&
1Y
1F
0L
#510000
0!
0>
0?
1-
#515000
1!
1>
1?
0-
1Z
0M
1G
1W
04
05
16
0&
0%
1$
0Y
#520000
0!
0>
0?
1-
#525000
1!
1>
1?
0-
0Z
0W
1@
14
1&
1Y
1L
#530000
0!
0>
0?
1-
#535000
1!
1>
1?
0-
1Z
1M
1W
04
15
0&
1%
0Y
#540000
0!
0>
0?
1-
#545000
1!
1>
1?
0-
0Z
0W
1S
0E
0@
14
1&
1Y
1T
0F
0L
#550000
0!
0>
0?
1-
#555000
1!
1>
1?
0-
1Z
1U
0M
0G
1W
0T
1Q
1A
04
17
05
06
0&
1#
0%
0$
0Y
#560000
0!
0>
0?
1-
#565000
1!
1>
1?
0-
0Z
1R
0U
1D
1X
0W
0S
1N
1@
0A
1I
14
08
07
19
1&
0)
0#
1(
0X
1K
0I
1A
1Y
1L
#570000
0!
0>
0?
1-
#575000
1!
1>
1?
0-
1Z
1M
1X
04
15
0&
1%
0Y
#580000
0!
0>
0?
1-
#585000
1!
1>
1?
0-
0Z
0X
0N
1E
0@
14
1&
1Y
1X
0K
1I
0A
1F
0L
0Y
0F
#590000
0!
0>
0?
1-
#595000
1!
1>
1?
0-
0M
1J
0D
1N
1H
0E
1@
0X
0I
05
1;
09
0%
1,
0(
0[
1K
1I
1Y
0=
1:
0*
1'
1L
#600000
0!
0>
0?
1-
#605000
1!
1>
1?
0-
1Z
1M
1W
04
15
0&
1%
0Y
#610000
0!
0>
0?
1-
#615000
1!
1>
1?
0-
0Z
0W
0N
1E
0@
14
1&
1Y
1F
0L
#620000
0!
0>
0?
1-
#625000
1!
1>
1?
0-
1Z
0M
1G
1W
04
05
16
0&
0%
1$
0Y
#630000
0!
0>
0?
1-
#635000
1!
1>
1?
0-
0Z
0W
1@
14
1&
1Y
1L
#640000
0!
0>
0?
1-
#645000
1!
1>
1?
0-
1Z
1M
1W
04
15
0&
1%
0Y
#650000
0!
0>
0?
1-
#655000
1!
1>
1?
0-
0Z
0W
1S
0E
0@
14
1&
1Y
1T
0F
0L
#660000
0!
0>
0?
1-
#665000
1!
1>
1?
0-
1Z
1U
0M
0G
1W
04
17
05
06
0&
1#
0%
0$
0Y
#670000
0!
0>
0?
1-
#675000
1!
1>
1?
0-
0Z
0W
1@
14
1&
1Y
1L
#680000
0!
0>
0?
1-
#685000
1!
1>
1?
0-
1Z
1M
1W
1V
0H
04
15
0&
1%
0Y
1O
0K
0I
0T
0L
#690000
0!
0>
0?
1-
#695000
1!
1>
1?
0-
0Z
0U
1P
0M
0J
1X
0W
0S
1N
0V
0Q
14
07
1<
05
0;
1&
0#
1+
0%
0,
0X
1Q
1K
1Y
1L
#700000
0!
0>
0?
1-
#705000
1!
1>
1?
0-
1Z
1M
1X
04
15
0&
1%
0Y
#710000
0!
0>
0?
1-
#715000
1!
1>
1?
0-
0Z
0X
0N
1E
0@
14
1&
1Y
1X
0Q
0O
0K
1F
0L
0Y
0F
#720000
0!
0>
0?
1-
#725000
1!
1>
1?
0-
0R
0P
0M
1F
0X
1N
0E
1@
18
0<
05
1)
0+
0%
1[
1Y
0F
1L
1=
0:
1*
0'
#730000
0!
0>
0?
1-
#735000
1!
1>
1?
0-
1Z
1M
1W
04
15
0&
1%
0Y
#740000
0!
0>
0?
1-
#745000
1!
1>
1?
0-
0Z
0W
0N
1E
0@
14
1&
1Y
1F
0L
#750000
0!
0>
0?
1-
#755000
1!
1>
1?
0-
1Z
0M
1G
1W
04
05
16
0&
0%
1$
0Y
#760000
0!
0>
0?
1-
#765000
1!
1>
1?
0-
0Z
0W
1@
14
1&
1Y
1L
#770000
0!
0>
0?
1-
#775000
1!
1>
1?
0-
1Z
1M
1W
04
15
0&
1%
0Y
#780000
0!
0>
0?
1-
#785000
1!
1>
1?
0-
0Z
0W
1S
0E
0@
14
1&
1Y
1T
0F
0L
#790000
0!
0>
0?
1-
#795000
1!
1>
1?
0-
1Z
1U
0M
0G
1W
0T
1Q
1A
04
17
05
06
0&
1#
0%
0$
0Y
#800000
0!
0>
0?
1-
#805000
1!
1>
1?
0-
0Z
1R
0U
1D
1X
0W
0S
1N
1@
0A
1I
14
08
07
19
1&
0)
0#
1(
0X
1K
0I
1A
1Y
1L
#810000
0!
0>
0?
1-
#815000
1!
1>
1?
0-
1Z
1M
1X
04
15
0&
1%
0Y
#820000
0!
0>
0?
1-
#825000
1!
1>
1?
0-
0Z
0X
0N
1E
0@
14
1&
1Y
1X
0K
1I
0A
1F
0L
0Y
0F
#830000
0!
0>
0?
1-
#835000
1!
1>
1?
0-
0M
1J
0D
1N
1H
0E
1@
0X
0I
05
1;
09
0%
1,
0(
0[
1K
1I
1Y
0=
1:
0*
1'
1L
#840000
0!
0>
0?
1-
#845000
1!
1>
1?
0-
1Z
1M
1W
04
15
0&
1%
0Y
#850000
0!
0>
0?
1-
#855000
1!
1>
1?
0-
0Z
0W
0N
1E
0@
14
1&
1Y
1F
0L
#860000
0!
0>
0?
1-
#865000
1!
1>
1?
0-
1Z
0M
1G
1W
04
05
16
0&
0%
1$
0Y
#870000
0!
0>
0?
1-
#875000
1!
1>
1?
0-
0Z
0W
1@
14
1&
1Y
1L
#880000
0!
0>
0?
1-
#885000
1!
1>
1?
0-
1Z
1M
1W
04
15
0&
1%
0Y
#890000
0!
0>
0?
1-
#895000
1!
1>
1?
0-
0Z
0W
1S
0E
0@
14
1&
1Y
1T
0F
0L
#900000
0!
0>
0?
1-
#905000
1!
1>
1?
0-
1Z
1U
0M
0G
1W
04
17
05
06
0&
1#
0%
0$
0Y
#910000
0!
0>
0?
1-
#915000
1!
1>
1?
0-
0Z
0W
1@
14
1&
1Y
1L
#920000
0!
0>
0?
1-
#925000
1!
1>
1?
0-
1Z
1M
1W
1V
0H
04
15
0&
1%
0Y
1O
0K
0I
0T
0L
#930000
0!
0>
0?
1-
#935000
1!
1>
1?
0-
0Z
0U
1P
0M
0J
1X
0W
0S
1N
0V
0Q
14
07
1<
05
0;
1&
0#
1+
0%
0,
0X
1Q
1K
1Y
1L
#940000
0!
0>
0?
1-
#945000
1!
1>
1?
0-
1Z
1M
1X
04
15
0&
1%
0Y
#950000
0!
0>
0?
1-
#955000
1!
1>
1?
0-
0Z
0X
0N
1E
0@
14
1&
1Y
1X
0Q
0O
0K
1F
0L
0Y
0F
#960000
0!
0>
0?
1-
#965000
1!
1>
1?
0-
0R
0P
0M
1F
0X
1N
0E
1@
18
0<
05
1)
0+
0%
1[
1Y
0F
1L
1=
0:
1*
0'
#970000
0!
0>
0?
1-
#975000
1!
1>
1?
0-
1Z
1M
1W
04
15
0&
1%
0Y
#980000
0!
0>
0?
1-
#985000
1!
1>
1?
0-
0Z
0W
0N
1E
0@
14
1&
1Y
1F
0L
#990000
0!
0>
0?
1-
#995000
1!
1>
1?
0-
1Z
0M
1G
1W
04
05
16
0&
0%
1$
0Y
