frequency_divider/accumulator/simulation/qsim/accumulator.msim.vcd
$comment
	File created using the following command:
		vcd file accumulator.msim.vcd -direction
$end
$date
	Sat Sep 13 14:06:53 2025
$end
$version
	ModelSim Version 10.1d
$end
$timescale
	1ps
$end
$scope module accumulator_vlg_vec_tst $end
$var reg 1 ! clk $end
$var reg 1 " rst $end
$var reg 1 # w_en $end
$var wire 1 $ acc_out [31] $end
$var wire 1 % acc_out [30] $end
$var wire 1 & acc_out [29] $end
$var wire 1 ' acc_out [28] $end
$var wire 1 ( acc_out [27] $end
$var wire 1 ) acc_out [26] $end
$var wire 1 * acc_out [25] $end
$var wire 1 + acc_out [24] $end
$var wire 1 , acc_out [23] $end
$var wire 1 - acc_out [22] $end
$var wire 1 . acc_out [21] $end
$var wire 1 / acc_out [20] $end
$var wire 1 0 acc_out [19] $end
$var wire 1 1 acc_out [18] $end
$var wire 1 2 acc_out [17] $end
$var wire 1 3 acc_out [16] $end
$var wire 1 4 acc_out [15] $end
$var wire 1 5 acc_out [14] $end
$var wire 1 6 acc_out [13] $end
$var wire 1 7 acc_out [12] $end
$var wire 1 8 acc_out [11] $end
$var wire 1 9 acc_out [10] $end
$var wire 1 : acc_out [9] $end
$var wire 1 ; acc_out [8] $end
$var wire 1 < acc_out [7] $end
$var wire 1 = acc_out [6] $end
$var wire 1 > acc_out [5] $end
$var wire 1 ? acc_out [4] $end
$var wire 1 @ acc_out [3] $end
$var wire 1 A acc_out [2] $end
$var wire 1 B acc_out [1] $end
$var wire 1 C acc_out [0] $end
$var wire 1 D sampler $end
$scope module i1 $end
$var wire 1 E gnd $end
$var wire 1 F vcc $end
$var wire 1 G unknown $end
$var tri1 1 H devclrn $end
$var tri1 1 I devpor $end
$var tri1 1 J devoe $end
$var wire 1 K acc_out[0]~output_o $end
$var wire 1 L acc_out[1]~output_o $end
$var wire 1 M acc_out[2]~output_o $end
$var wire 1 N acc_out[3]~output_o $end
$var wire 1 O acc_out[4]~output_o $end
$var wire 1 P acc_out[5]~output_o $end
$var wire 1 Q acc_out[6]~output_o $end
$var wire 1 R acc_out[7]~output_o $end
$var wire 1 S acc_out[8]~output_o $end
$var wire 1 T acc_out[9]~output_o $end
$var wire 1 U acc_out[10]~output_o $end
$var wire 1 V acc_out[11]~output_o $end
$var wire 1 W acc_out[12]~output_o $end
$var wire 1 X acc_out[13]~output_o $end
$var wire 1 Y acc_out[14]~output_o $end
$var wire 1 Z acc_out[15]~output_o $end
$var wire 1 [ acc_out[16]~output_o $end
$var wire 1 \ acc_out[17]~output_o $end
$var wire 1 ] acc_out[18]~output_o $end
$var wire 1 ^ acc_out[19]~output_o $end
$var wire 1 _ acc_out[20]~output_o $end
$var wire 1 ` acc_out[21]~output_o $end
$var wire 1 a acc_out[22]~output_o $end
$var wire 1 b acc_out[23]~output_o $end
$var wire 1 c acc_out[24]~output_o $end
$var wire 1 d acc_out[25]~output_o $end
$var wire 1 e acc_out[26]~output_o $end
$var wire 1 f acc_out[27]~output_o $end
$var wire 1 g acc_out[28]~output_o $end
$var wire 1 h acc_out[29]~output_o $end
$var wire 1 i acc_out[30]~output_o $end
$var wire 1 j acc_out[31]~output_o $end
$var wire 1 k clk~input_o $end
$var wire 1 l clk~inputclkctrl_outclk $end
$var wire 1 m w_en~input_o $end
$var wire 1 n acc_out[0]~32_combout $end
$var wire 1 o rst~input_o $end
$var wire 1 p acc_out[0]~reg0_q $end
$var wire 1 q acc_out[0]~33 $end
$var wire 1 r acc_out[1]~34_combout $end
$var wire 1 s acc_out[1]~reg0_q $end
$var wire 1 t acc_out[1]~35 $end
$var wire 1 u acc_out[2]~36_combout $end
$var wire 1 v acc_out[2]~reg0_q $end
$var wire 1 w acc_out[2]~37 $end
$var wire 1 x acc_out[3]~38_combout $end
$var wire 1 y acc_out[3]~reg0_q $end
$var wire 1 z acc_out[3]~39 $end
$var wire 1 { acc_out[4]~40_combout $end
$var wire 1 | acc_out[4]~reg0_q $end
$var wire 1 } acc_out[4]~41 $end
$var wire 1 ~ acc_out[5]~42_combout $end
$var wire 1 !! acc_out[5]~reg0_q $end
$var wire 1 "! acc_out[5]~43 $end
$var wire 1 #! acc_out[6]~44_combout $end
$var wire 1 $! acc_out[6]~reg0_q $end
$var wire 1 %! acc_out[6]~45 $end
$var wire 1 &! acc_out[7]~46_combout $end
$var wire 1 '! acc_out[7]~reg0_q $end
$var wire 1 (! acc_out[7]~47 $end
$var wire 1 )! acc_out[8]~48_combout $end
$var wire 1 *! acc_out[8]~reg0_q $end
$var wire 1 +! acc_out[8]~49 $end
$var wire 1 ,! acc_out[9]~50_combout $end
$var wire 1 -! acc_out[9]~reg0_q $end
$var wire 1 .! acc_out[9]~51 $end
$var wire 1 /! acc_out[10]~52_combout $end
$var wire 1 0! acc_out[10]~reg0_q $end
$var wire 1 1! acc_out[10]~53 $end
$var wire 1 2! acc_out[11]~54_combout $end
$var wire 1 3! acc_out[11]~reg0_q $end
$var wire 1 4! acc_out[11]~55 $end
$var wire 1 5! acc_out[12]~56_combout $end
$var wire 1 6! acc_out[12]~reg0_q $end
$var wire 1 7! acc_out[12]~57 $end
$var wire 1 8! acc_out[13]~58_combout $end
$var wire 1 9! acc_out[13]~reg0_q $end
$var wire 1 :! acc_out[13]~59 $end
$var wire 1 ;! acc_out[14]~60_combout $end
$var wire 1 <! acc_out[14]~reg0_q $end
$var wire 1 =! acc_out[14]~61 $end
$var wire 1 >! acc_out[15]~62_combout $end
$var wire 1 ?! acc_out[15]~reg0_q $end
$var wire 1 @! acc_out[15]~63 $end
$var wire 1 A! acc_out[16]~64_combout $end
$var wire 1 B! acc_out[16]~reg0_q $end
$var wire 1 C! acc_out[16]~65 $end
$var wire 1 D! acc_out[17]~66_combout $end
$var wire 1 E! acc_out[17]~reg0_q $end
$var wire 1 F! acc_out[17]~67 $end
$var wire 1 G! acc_out[18]~68_combout $end
$var wire 1 H! acc_out[18]~reg0_q $end
$var wire 1 I! acc_out[18]~69 $end
$var wire 1 J! acc_out[19]~70_combout $end
$var wire 1 K! acc_out[19]~reg0_q $end
$var wire 1 L! acc_out[19]~71 $end
$var wire 1 M! acc_out[20]~72_combout $end
$var wire 1 N! acc_out[20]~reg0_q $end
$var wire 1 O! acc_out[20]~73 $end
$var wire 1 P! acc_out[21]~74_combout $end
$var wire 1 Q! acc_out[21]~reg0_q $end
$var wire 1 R! acc_out[21]~75 $end
$var wire 1 S! acc_out[22]~76_combout $end
$var wire 1 T! acc_out[22]~reg0_q $end
$var wire 1 U! acc_out[22]~77 $end
$var wire 1 V! acc_out[23]~78_combout $end
$var wire 1 W! acc_out[23]~reg0_q $end
$var wire 1 X! acc_out[23]~79 $end
$var wire 1 Y! acc_out[24]~80_combout $end
$var wire 1 Z! acc_out[24]~reg0_q $end
$var wire 1 [! acc_out[24]~81 $end
$var wire 1 \! acc_out[25]~82_combout $end
$var wire 1 ]! acc_out[25]~reg0_q $end
$var wire 1 ^! acc_out[25]~83 $end
$var wire 1 _! acc_out[26]~84_combout $end
$var wire 1 `! acc_out[26]~reg0_q $end
$var wire 1 a! acc_out[26]~85 $end
$var wire 1 b! acc_out[27]~86_combout $end
$var wire 1 c! acc_out[27]~reg0_q $end
$var wire 1 d! acc_out[27]~87 $end
$var wire 1 e! acc_out[28]~88_combout $end
$var wire 1 f! acc_out[28]~reg0_q $end
$var wire 1 g! acc_out[28]~89 $end
$var wire 1 h! acc_out[29]~90_combout $end
$var wire 1 i! acc_out[29]~reg0_q $end
$var wire 1 j! acc_out[29]~91 $end
$var wire 1 k! acc_out[30]~92_combout $end
$var wire 1 l! acc_out[30]~reg0_q $end
$var wire 1 m! acc_out[30]~93 $end
$var wire 1 n! acc_out[31]~94_combout $end
$var wire 1 o! acc_out[31]~reg0_q $end
$upscope $end
$upscope $end
$enddefinitions $end
#0
$dumpvars
0!
1"
1#
0C
0B
0A
0@
0?
0>
0=
0<
0;
0:
09
08
07
06
05
04
03
02
01
00
0/
0.
0-
0,
0+
0*
0)
0(
0'
0&
0%
0$
xD
0E
1F
xG
1H
1I
1J
0K
0L
0M
0N
0O
0P
0Q
0R
0S
0T
0U
0V
0W
0X
0Y
0Z
0[
0\
0]
0^
0_
0`
0a
0b
0c
0d
0e
0f
0g
0h
0i
0j
0k
0l
1m
1n
1o
0p
0q
0r
0s
1t
0u
0v
0w
0x
0y
1z
0{
0|
0}
0~
0!!
1"!
0#!
0$!
0%!
0&!
0'!
1(!
0)!
0*!
0+!
0,!
0-!
1.!
0/!
00!
01!
02!
03!
14!
05!
06!
07!
08!
09!
1:!
0;!
0<!
0=!
0>!
0?!
1@!
0A!
0B!
0C!
0D!
0E!
1F!
0G!
0H!
0I!
0J!
0K!
1L!
0M!
0N!
0O!
0P!
0Q!
1R!
0S!
0T!
0U!
0V!
0W!
1X!
0Y!
0Z!
0[!
0\!
0]!
1^!
0_!
0`!
0a!
0b!
0c!
1d!
0e!
0f!
0g!
0h!
0i!
1j!
0k!
0l!
0m!
0n!
0o!
$end
#5000
1!
1k
1l
0D
#10000
0"
0!
0o
0k
0l
1D
#15000
1!
1k
1l
0D
1p
1q
0n
1K
1C
1r
#20000
0!
0k
0l
1D
#25000
1!
1k
1l
0D
1s
0p
0t
0r
0q
1n
1L
0K
1B
0C
1u
1t
1r
0u
#30000
0!
0k
0l
1D
#35000
1!
1k
1l
0D
1p
1q
0n
1K
1C
0t
0r
1u
#40000
0!
0k
0l
1D
#45000
1!
1k
1l
0D
1v
0s
0p
1w
0u
1t
1r
0q
1n
1M
0L
0K
1A
0B
0C
1x
0w
1u
0r
0x
#50000
0!
0k
0l
1D
#55000
1!
1k
1l
0D
1p
1q
0n
1K
1C
1r
#60000
0!
0k
0l
1D
#65000
1!
1k
1l
0D
1s
0p
0t
0r
0q
1n
1L
0K
1B
0C
1w
0u
1t
1r
1x
0w
1u
0x
#70000
0!
0k
0l
1D
#75000
1!
1k
1l
0D
1p
1q
0n
1K
1C
0t
0r
1w
0u
1x
#80000
0!
0k
0l
1D
#85000
1!
1k
1l
0D
1y
0v
0s
0p
0z
0x
0w
1u
1t
1r
0q
1n
1N
0M
0L
0K
1@
0A
0B
0C
1{
1z
1x
0u
0r
0{
#90000
1"
0!
1o
0k
0l
1D
#95000
1!
1k
1l
0D
0y
0x
0N
0@
#100000
0"
0!
0o
0k
0l
1D
#105000
1!
1k
1l
0D
1p
1q
0n
1K
1C
1r
#110000
0!
0k
0l
1D
#115000
1!
1k
1l
0D
1s
0p
0t
0r
0q
1n
1L
0K
1B
0C
1u
1t
1r
0u
#120000
0!
0k
0l
1D
#125000
1!
1k
1l
0D
1p
1q
0n
1K
1C
0t
0r
1u
#130000
0!
0k
0l
1D
#135000
1!
1k
1l
0D
1v
0s
0p
1w
0u
1t
1r
0q
1n
1M
0L
0K
1A
0B
0C
1x
0w
1u
0r
0x
#140000
0!
0k
0l
1D
#145000
1!
1k
1l
0D
1p
1q
0n
1K
1C
1r
#150000
0!
0k
0l
1D
#155000
1!
1k
1l
0D
1s
0p
0t
0r
0q
1n
1L
0K
1B
0C
1w
0u
1t
1r
1x
0w
1u
0x
#160000
0!
0k
0l
1D
#165000
1!
1k
1l
0D
1p
1q
0n
1K
1C
0t
0r
1w
0u
1x
#170000
0!
0k
0l
1D
#175000
1!
1k
1l
0D
1y
0v
0s
0p
0z
0x
0w
1u
1t
1r
0q
1n
1N
0M
0L
0K
1@
0A
0B
0C
1{
1z
1x
0u
0r
0{
#180000
0!
0k
0l
1D
#185000
1!
1k
1l
0D
1p
1q
0n
1K
1C
1r
#190000
0!
0k
0l
1D
#195000
1!
1k
1l
0D
1s
0p
0t
0r
0q
1n
1L
0K
1B
0C
1u
1t
1r
0u
#200000
0!
0k
0l
1D
#205000
1!
1k
1l
0D
1p
1q
0n
1K
1C
0t
0r
1u
#210000
0!
0k
0l
1D
#215000
1!
1k
1l
0D
1v
0s
0p
1w
0u
1t
1r
0q
1n
1M
0L
0K
1A
0B
0C
0z
0x
0w
1u
0r
1{
1z
1x
0{
#220000
0!
0k
0l
1D
#225000
1!
1k
1l
0D
1p
1q
0n
1K
1C
1r
#230000
0!
0k
0l
1D
#235000
1!
1k
1l
0D
1s
0p
0t
0r
0q
1n
1L
0K
1B
0C
1w
0u
1t
1r
0z
0x
0w
1u
1{
1z
1x
0{
#240000
0!
0k
0l
1D
#245000
1!
1k
1l
0D
1p
1q
0n
1K
1C
0t
0r
1w
0u
0z
0x
1{
#250000
0!
0k
0l
1D
#255000
1!
1k
1l
0D
1|
0y
0v
0s
0p
1}
0{
1z
1x
0w
1u
1t
1r
0q
1n
1O
0N
0M
0L
0K
1?
0@
0A
0B
0C
1~
0}
1{
0x
0u
0r
0~
#260000
0!
0k
0l
1D
#265000
1!
1k
1l
0D
1p
1q
0n
1K
1C
1r
#270000
0!
0k
0l
1D
#275000
1!
1k
1l
0D
1s
0p
0t
0r
0q
1n
1L
0K
1B
0C
1u
1t
1r
0u
#280000
0!
0k
0l
1D
#285000
1!
1k
1l
0D
1p
1q
0n
1K
1C
0t
0r
1u
#290000
0!
0k
0l
1D
#295000
1!
1k
1l
0D
1v
0s
0p
1w
0u
1t
1r
0q
1n
1M
0L
0K
1A
0B
0C
1x
0w
1u
0r
0x
#300000
0!
0k
0l
1D
#305000
1!
1k
1l
0D
1p
1q
0n
1K
1C
1r
#310000
0!
0k
0l
1D
#315000
1!
1k
1l
0D
1s
0p
0t
0r
0q
1n
1L
0K
1B
0C
1w
0u
1t
1r
1x
0w
1u
0x
#320000
0!
0k
0l
1D
#325000
1!
1k
1l
0D
1p
1q
0n
1K
1C
0t
0r
1w
0u
1x
#330000
0!
0k
0l
1D
#335000
1!
1k
1l
0D
1y
0v
0s
0p
0z
0x
0w
1u
1t
1r
0q
1n
1N
0M
0L
0K
1@
0A
0B
0C
1}
0{
1z
1x
0u
0r
1~
0}
1{
0~
#340000
0!
0k
0l
1D
#345000
1!
1k
1l
0D
1p
1q
0n
1K
1C
1r
#350000
0!
0k
0l
1D
#355000
1!
1k
1l
0D
1s
0p
0t
0r
0q
1n
1L
0K
1B
0C
1u
1t
1r
0u
#360000
0!
0k
0l
1D
#365000
1!
1k
1l
0D
1p
1q
0n
1K
1C
0t
0r
1u
#370000
0!
0k
0l
1D
#375000
1!
1k
1l
0D
1v
0s
0p
1w
0u
1t
1r
0q
1n
1M
0L
0K
1A
0B
0C
0z
0x
0w
1u
0r
1}
0{
1z
1x
1~
0}
1{
0~
#380000
0!
0k
0l
1D
#385000
1!
1k
1l
0D
1p
1q
0n
1K
1C
1r
#390000
0!
0k
0l
1D
#395000
1!
1k
1l
0D
1s
0p
0t
0r
0q
1n
1L
0K
1B
0C
1w
0u
1t
1r
0z
0x
0w
1u
1}
0{
1z
1x
1~
0}
1{
0~
#400000
0!
0k
0l
1D
#405000
1!
1k
1l
0D
1p
1q
0n
1K
1C
0t
0r
1w
0u
0z
0x
1}
0{
1~
#410000
0!
0k
0l
1D
#415000
1!
1k
1l
0D
1!!
0|
0y
0v
0s
0p
0"!
0~
0}
1{
1z
1x
0w
1u
1t
1r
0q
1n
1P
0O
0N
0M
0L
0K
1>
0?
0@
0A
0B
0C
1#!
1"!
1~
0{
0x
0u
0r
0#!
#420000
0!
0k
0l
1D
#425000
1!
1k
1l
0D
1p
1q
0n
1K
1C
1r
#430000
0!
0k
0l
1D
#435000
1!
1k
1l
0D
1s
0p
0t
0r
0q
1n
1L
0K
1B
0C
1u
1t
1r
0u
#440000
0!
0k
0l
1D
#445000
1!
1k
1l
0D
1p
1q
0n
1K
1C
0t
0r
1u
#450000
0!
0k
0l
1D
#455000
1!
1k
1l
0D
1v
0s
0p
1w
0u
1t
1r
0q
1n
1M
0L
0K
1A
0B
0C
1x
0w
1u
0r
0x
#460000
0!
0k
0l
1D
#465000
1!
1k
1l
0D
1p
1q
0n
1K
1C
1r
#470000
0!
0k
0l
1D
#475000
1!
1k
1l
0D
1s
0p
0t
0r
0q
1n
1L
0K
1B
0C
1w
0u
1t
1r
1x
0w
1u
0x
#480000
0!
0k
0l
1D
#485000
1!
1k
1l
0D
1p
1q
0n
1K
1C
0t
0r
1w
0u
1x
#490000
0!
0k
0l
1D
#495000
1!
1k
1l
0D
1y
0v
0s
0p
0z
0x
0w
1u
1t
1r
0q
1n
1N
0M
0L
0K
1@
0A
0B
0C
1{
1z
1x
0u
0r
0{
#500000
0!
0k
0l
1D
#505000
1!
1k
1l
0D
1p
1q
0n
1K
1C
1r
#510000
0!
0k
0l
1D
#515000
1!
1k
1l
0D
1s
0p
0t
0r
0q
1n
1L
0K
1B
0C
1u
1t
1r
0u
#520000
0!
0k
0l
1D
#525000
1!
1k
1l
0D
1p
1q
0n
1K
1C
0t
0r
1u
#530000
0!
0k
0l
1D
#535000
1!
1k
1l
0D
1v
0s
0p
1w
0u
1t
1r
0q
1n
1M
0L
0K
1A
0B
0C
0z
0x
0w
1u
0r
1{
1z
1x
0{
#540000
0!
0k
0l
1D
#545000
1!
1k
1l
0D
1p
1q
0n
1K
1C
1r
#550000
0!
0k
0l
1D
#555000
1!
1k
1l
0D
1s
0p
0t
0r
0q
1n
1L
0K
1B
0C
1w
0u
1t
1r
0z
0x
0w
1u
1{
1z
1x
0{
#560000
0!
0k
0l
1D
#565000
1!
1k
1l
0D
1p
1q
0n
1K
1C
0t
0r
1w
0u
0z
0x
1{
#570000
0!
0k
0l
1D
#575000
1!
1k
1l
0D
1|
0y
0v
0s
0p
1}
0{
1z
1x
0w
1u
1t
1r
0q
1n
1O
0N
0M
0L
0K
1?
0@
0A
0B
0C
0"!
0~
0}
1{
0x
0u
0r
1#!
1"!
1~
0#!
#580000
0!
0k
0l
1D
#585000
1!
1k
1l
0D
1p
1q
0n
1K
1C
1r
#590000
0!
0k
0l
1D
#595000
1!
1k
1l
0D
1s
0p
0t
0r
0q
1n
1L
0K
1B
0C
1u
1t
1r
0u
#600000
0!
0k
0l
1D
#605000
1!
1k
1l
0D
1p
1q
0n
1K
1C
0t
0r
1u
#610000
0!
0k
0l
1D
#615000
1!
1k
1l
0D
1v
0s
0p
1w
0u
1t
1r
0q
1n
1M
0L
0K
1A
0B
0C
1x
0w
1u
0r
0x
#620000
0!
0k
0l
1D
#625000
1!
1k
1l
0D
1p
1q
0n
1K
1C
1r
#630000
0!
0k
0l
1D
#635000
1!
1k
1l
0D
1s
0p
0t
0r
0q
1n
1L
0K
1B
0C
1w
0u
1t
1r
1x
0w
1u
0x
#640000
0!
0k
0l
1D
#645000
1!
1k
1l
0D
1p
1q
0n
1K
1C
0t
0r
1w
0u
1x
#650000
0!
0k
0l
1D
#655000
1!
1k
1l
0D
1y
0v
0s
0p
0z
0x
0w
1u
1t
1r
0q
1n
1N
0M
0L
0K
1@
0A
0B
0C
1}
0{
1z
1x
0u
0r
0"!
0~
0}
1{
1#!
1"!
1~
0#!
#660000
0!
0k
0l
1D
#665000
1!
1k
1l
0D
1p
1q
0n
1K
1C
1r
#670000
0!
0k
0l
1D
#675000
1!
1k
1l
0D
1s
0p
0t
0r
0q
1n
1L
0K
1B
0C
1u
1t
1r
0u
#680000
0!
0k
0l
1D
#685000
1!
1k
1l
0D
1p
1q
0n
1K
1C
0t
0r
1u
#690000
0!
0k
0l
1D
#695000
1!
1k
1l
0D
1v
0s
0p
1w
0u
1t
1r
0q
1n
1M
0L
0K
1A
0B
0C
0z
0x
0w
1u
0r
1}
0{
1z
1x
0"!
0~
0}
1{
1#!
1"!
1~
0#!
#700000
0!
0k
0l
1D
#705000
1!
1k
1l
0D
1p
1q
0n
1K
1C
1r
#710000
0!
0k
0l
1D
#715000
1!
1k
1l
0D
1s
0p
0t
0r
0q
1n
1L
0K
1B
0C
1w
0u
1t
1r
0z
0x
0w
1u
1}
0{
1z
1x
0"!
0~
0}
1{
1#!
1"!
1~
0#!
#720000
0!
0k
0l
1D
#725000
1!
1k
1l
0D
1p
1q
0n
1K
1C
0t
0r
1w
0u
0z
0x
1}
0{
0"!
0~
1#!
#730000
0!
0k
0l
1D
#735000
1!
1k
1l
0D
1$!
0!!
0|
0y
0v
0s
0p
1%!
0#!
1"!
1~
0}
1{
1z
1x
0w
1u
1t
1r
0q
1n
1Q
0P
0O
0N
0M
0L
0K
1=
0>
0?
0@
0A
0B
0C
1&!
0%!
1#!
0~
0{
0x
0u
0r
0&!
#740000
0!
0k
0l
1D
#745000
1!
1k
1l
0D
1p
1q
0n
1K
1C
1r
#750000
0!
0k
0l
1D
#755000
1!
1k
1l
0D
1s
0p
0t
0r
0q
1n
1L
0K
1B
0C
1u
1t
1r
0u
#760000
0!
0k
0l
1D
#765000
1!
1k
1l
0D
1p
1q
0n
1K
1C
0t
0r
1u
#770000
0!
0k
0l
1D
#775000
1!
1k
1l
0D
1v
0s
0p
1w
0u
1t
1r
0q
1n
1M
0L
0K
1A
0B
0C
1x
0w
1u
0r
0x
#780000
0!
0k
0l
1D
#785000
1!
1k
1l
0D
1p
1q
0n
1K
1C
1r
#790000
0!
0k
0l
1D
#795000
1!
1k
1l
0D
1s
0p
0t
0r
0q
1n
1L
0K
1B
0C
1w
0u
1t
1r
1x
0w
1u
0x
#800000
0!
0k
0l
1D
#805000
1!
1k
1l
0D
1p
1q
0n
1K
1C
0t
0r
1w
0u
1x
#810000
0!
0k
0l
1D
#815000
1!
1k
1l
0D
1y
0v
0s
0p
0z
0x
0w
1u
1t
1r
0q
1n
1N
0M
0L
0K
1@
0A
0B
0C
1{
1z
1x
0u
0r
0{
#820000
0!
0k
0l
1D
#825000
1!
1k
1l
0D
1p
1q
0n
1K
1C
1r
#830000
0!
0k
0l
1D
#835000
1!
1k
1l
0D
1s
0p
0t
0r
0q
1n
1L
0K
1B
0C
1u
1t
1r
0u
#840000
0!
0k
0l
1D
#845000
1!
1k
1l
0D
1p
1q
0n
1K
1C
0t
0r
1u
#850000
0!
0k
0l
1D
#855000
1!
1k
1l
0D
1v
0s
0p
1w
0u
1t
1r
0q
1n
1M
0L
0K
1A
0B
0C
0z
0x
0w
1u
0r
1{
1z
1x
0{
#860000
0!
0k
0l
1D
#865000
1!
1k
1l
0D
1p
1q
0n
1K
1C
1r
#870000
0!
0k
0l
1D
#875000
1!
1k
1l
0D
1s
0p
0t
0r
0q
1n
1L
0K
1B
0C
1w
0u
1t
1r
0z
0x
0w
1u
1{
1z
1x
0{
#880000
0!
0k
0l
1D
#885000
1!
1k
1l
0D
1p
1q
0n
1K
1C
0t
0r
1w
0u
0z
0x
1{
#890000
0!
0k
0l
1D
#895000
1!
1k
1l
0D
1|
0y
0v
0s
0p
1}
0{
1z
1x
0w
1u
1t
1r
0q
1n
1O
0N
0M
0L
0K
1?
0@
0A
0B
0C
1~
0}
1{
0x
0u
0r
0~
#900000
0!
0k
0l
1D
#905000
1!
1k
1l
0D
1p
1q
0n
1K
1C
1r
#910000
0!
0k
0l
1D
#915000
1!
1k
1l
0D
1s
0p
0t
0r
0q
1n
1L
0K
1B
0C
1u
1t
1r
0u
#920000
0!
0k
0l
1D
#925000
1!
1k
1l
0D
1p
1q
0n
1K
1C
0t
0r
1u
#930000
0!
0k
0l
1D
#935000
1!
1k
1l
0D
1v
0s
0p
1w
0u
1t
1r
0q
1n
1M
0L
0K
1A
0B
0C
1x
0w
1u
0r
0x
#940000
0!
0k
0l
1D
#945000
1!
1k
1l
0D
1p
1q
0n
1K
1C
1r
#950000
0!
0k
0l
1D
#955000
1!
1k
1l
0D
1s
0p
0t
0r
0q
1n
1L
0K
1B
0C
1w
0u
1t
1r
1x
0w
1u
0x
#960000
0!
0k
0l
1D
#965000
1!
1k
1l
0D
1p
1q
0n
1K
1C
0t
0r
1w
0u
1x
#970000
0!
0k
0l
1D
#975000
1!
1k
1l
0D
1y
0v
0s
0p
0z
0x
0w
1u
1t
1r
0q
1n
1N
0M
0L
0K
1@
0A
0B
0C
1}
0{
1z
1x
0u
0r
1~
0}
1{
0~
#980000
0!
0k
0l
1D
#985000
1!
1k
1l
0D
1p
1q
0n
1K
1C
1r
#990000
0!
0k
0l
1D
#995000
1!
1k
1l
0D
1s
0p
0t
0r
0q
1n
1L
0K
1B
0C
1u
1t
1r
0u
