traffic_moore/simulation/qsim/traffic_moore.msim.vcd
$comment
	File created using the following command:
		vcd file traffic_moore.msim.vcd -direction
$end
$date
	Wed Jun 25 17:41:39 2025
$end
$version
	ModelSim Version 10.1d
$end
$timescale
	1ps
$end
$scope module traffic_moore_vlg_vec_tst $end
$var reg 1 ! clk $end
$var reg 1 " rst_p $end
$var wire 1 # light [2] $end
$var wire 1 $ light [1] $end
$var wire 1 % light [0] $end
$var wire 1 & sampler $end
$scope module i1 $end
$var wire 1 ' gnd $end
$var wire 1 ( vcc $end
$var wire 1 ) unknown $end
$var tri1 1 * devclrn $end
$var tri1 1 + devpor $end
$var tri1 1 , devoe $end
$var wire 1 - light[0]~output_o $end
$var wire 1 . light[1]~output_o $end
$var wire 1 / light[2]~output_o $end
$var wire 1 0 clk~input_o $end
$var wire 1 1 clk~inputclkctrl_outclk $end
$var wire 1 2 count[0]~8_combout $end
$var wire 1 3 rst_p~input_o $end
$var wire 1 4 rst_p~inputclkctrl_outclk $end
$var wire 1 5 count[0]~9 $end
$var wire 1 6 count[1]~10_combout $end
$var wire 1 7 count[1]~11 $end
$var wire 1 8 count[2]~12_combout $end
$var wire 1 9 count[2]~13 $end
$var wire 1 : count[3]~14_combout $end
$var wire 1 ; count[3]~15 $end
$var wire 1 < count[4]~16_combout $end
$var wire 1 = count[4]~17 $end
$var wire 1 > count[5]~18_combout $end
$var wire 1 ? count[5]~19 $end
$var wire 1 @ count[6]~20_combout $end
$var wire 1 A count[6]~21 $end
$var wire 1 B count[7]~22_combout $end
$var wire 1 C Equal0~0_combout $end
$var wire 1 D Equal0~1_combout $end
$var wire 1 E Equal0~2_combout $end
$var wire 1 F WideOr0~0_combout $end
$var wire 1 G WideOr0~combout $end
$var wire 1 H Equal1~0_combout $end
$var wire 1 I Selector1~0_combout $end
$var wire 1 J Selector1~1_combout $end
$var wire 1 K current.state_Y~q $end
$var wire 1 L Selector2~0_combout $end
$var wire 1 M Selector2~1_combout $end
$var wire 1 N current.state_R~q $end
$var wire 1 O Selector0~0_combout $end
$var wire 1 P current.state_G~q $end
$var wire 1 Q count [7] $end
$var wire 1 R count [6] $end
$var wire 1 S count [5] $end
$var wire 1 T count [4] $end
$var wire 1 U count [3] $end
$var wire 1 V count [2] $end
$var wire 1 W count [1] $end
$var wire 1 X count [0] $end
$upscope $end
$upscope $end
$enddefinitions $end
#0
$dumpvars
0!
0"
0%
1$
0#
x&
0'
1(
x)
1*
1+
1,
0-
1.
0/
00
01
12
03
04
05
06
17
08
09
0:
1;
0<
0=
0>
1?
0@
0A
0B
1C
0D
0E
0F
0G
0H
0I
0J
0K
0L
0M
0N
0O
0P
0X
0W
0V
0U
0T
0S
0R
0Q
$end
#5000
1!
10
11
0&
#10000
1"
0!
13
00
14
01
1&
#15000
1!
10
11
0&
1X
15
02
16
#20000
0!
00
01
1&
#25000
1!
10
11
0&
0X
1W
1H
05
12
07
06
1L
1J
17
16
18
1M
1F
1G
08
#30000
0!
00
01
1&
#35000
1!
10
11
0&
1K
0W
1N
0L
0H
06
0F
0.
1/
0$
1#
0G
#40000
0!
00
01
1&
#45000
1!
10
11
0&
1X
15
02
16
#50000
0!
00
01
1&
#55000
1!
10
11
0&
0X
1W
1H
05
12
07
06
17
16
18
08
#60000
0!
00
01
1&
#65000
1!
10
11
0&
1X
0H
15
02
07
06
18
#70000
0!
00
01
1&
#75000
1!
10
11
0&
0X
1V
0W
05
12
19
08
17
16
06
1:
09
18
0:
#80000
0!
00
01
1&
#85000
1!
10
11
0&
1X
1D
15
02
1E
16
1O
0M
1F
1G
#90000
0!
00
01
1&
#95000
1!
10
11
0&
0X
0V
1P
0N
0D
05
12
08
0O
1I
1-
0/
1%
0#
0I
0E
06
0J
1J
1O
0F
0G
#100000
0!
00
01
1&
#105000
1!
10
11
0&
1X
15
02
16
#110000
0!
00
01
1&
#115000
1!
10
11
0&
0X
1W
1H
05
12
07
06
17
16
18
08
#120000
0!
00
01
1&
#125000
1!
10
11
0&
1X
0H
15
02
07
06
18
#130000
0!
00
01
1&
#135000
1!
10
11
0&
0X
1V
0W
05
12
19
08
17
16
06
1:
09
18
0:
#140000
0!
00
01
1&
#145000
1!
10
11
0&
1X
1D
15
02
1I
1E
16
0J
0O
1F
1G
#150000
0!
00
01
1&
#155000
1!
10
11
0&
0K
0X
0V
0P
0I
0D
05
12
08
0F
1.
0-
1$
0%
0E
06
0G
#160000
0!
00
01
1&
#165000
1!
10
11
0&
1X
15
02
16
#170000
0!
00
01
1&
#175000
1!
10
11
0&
0X
1W
1H
05
12
07
06
1L
1J
17
16
18
1M
1F
1G
08
#180000
0!
00
01
1&
#185000
1!
10
11
0&
1K
0W
1N
0L
0H
06
0F
0.
1/
0$
1#
0G
#190000
0!
00
01
1&
#195000
1!
10
11
0&
1X
15
02
16
#200000
0!
00
01
1&
#205000
1!
10
11
0&
0X
1W
1H
05
12
07
06
17
16
18
08
#210000
0!
00
01
1&
#215000
1!
10
11
0&
1X
0H
15
02
07
06
18
#220000
0!
00
01
1&
#225000
1!
10
11
0&
0X
1V
0W
05
12
19
08
17
16
06
1:
09
18
0:
#230000
0!
00
01
1&
#235000
1!
10
11
0&
1X
1D
15
02
1E
16
1O
0M
1F
1G
#240000
0!
00
01
1&
#245000
1!
10
11
0&
0X
0V
1P
0N
0D
05
12
08
0O
1I
1-
0/
1%
0#
0I
0E
06
0J
1J
1O
0F
0G
#250000
0!
00
01
1&
#255000
1!
10
11
0&
1X
15
02
16
#260000
0!
00
01
1&
#265000
1!
10
11
0&
0X
1W
1H
05
12
07
06
17
16
18
08
#270000
0!
00
01
1&
#275000
1!
10
11
0&
1X
0H
15
02
07
06
18
#280000
0!
00
01
1&
#285000
1!
10
11
0&
0X
1V
0W
05
12
19
08
17
16
06
1:
09
18
0:
#290000
0!
00
01
1&
#295000
1!
10
11
0&
1X
1D
15
02
1I
1E
16
0J
0O
1F
1G
#300000
0!
00
01
1&
#305000
1!
10
11
0&
0K
0X
0V
0P
0I
0D
05
12
08
0F
1.
0-
1$
0%
0E
06
0G
#310000
0!
00
01
1&
#315000
1!
10
11
0&
1X
15
02
16
#320000
0!
00
01
1&
#325000
1!
10
11
0&
0X
1W
1H
05
12
07
06
1L
1J
17
16
18
1M
1F
1G
08
#330000
0!
00
01
1&
#335000
1!
10
11
0&
1K
0W
1N
0L
0H
06
0F
0.
1/
0$
1#
0G
#340000
0!
00
01
1&
#345000
1!
10
11
0&
1X
15
02
16
#350000
0!
00
01
1&
#355000
1!
10
11
0&
0X
1W
1H
05
12
07
06
17
16
18
08
#360000
0!
00
01
1&
#365000
1!
10
11
0&
1X
0H
15
02
07
06
18
#370000
0!
00
01
1&
#375000
1!
10
11
0&
0X
1V
0W
05
12
19
08
17
16
06
1:
09
18
0:
#380000
0!
00
01
1&
#385000
1!
10
11
0&
1X
1D
15
02
1E
16
1O
0M
1F
1G
#390000
0!
00
01
1&
#395000
1!
10
11
0&
0X
0V
1P
0N
0D
05
12
08
0O
1I
1-
0/
1%
0#
0I
0E
06
0J
1J
1O
0F
0G
#400000
0!
00
01
1&
#405000
1!
10
11
0&
1X
15
02
16
#410000
0!
00
01
1&
#415000
1!
10
11
0&
0X
1W
1H
05
12
07
06
17
16
18
08
#420000
0!
00
01
1&
#425000
1!
10
11
0&
1X
0H
15
02
07
06
18
#430000
0!
00
01
1&
#435000
1!
10
11
0&
0X
1V
0W
05
12
19
08
17
16
06
1:
09
18
0:
#440000
0!
00
01
1&
#445000
1!
10
11
0&
1X
1D
15
02
1I
1E
16
0J
0O
1F
1G
#450000
0!
00
01
1&
#455000
1!
10
11
0&
0K
0X
0V
0P
0I
0D
05
12
08
0F
1.
0-
1$
0%
0E
06
0G
#460000
0!
00
01
1&
#465000
1!
10
11
0&
1X
15
02
16
#470000
0!
00
01
1&
#475000
1!
10
11
0&
0X
1W
1H
05
12
07
06
1L
1J
17
16
18
1M
1F
1G
08
#480000
0!
00
01
1&
#485000
1!
10
11
0&
1K
0W
1N
0L
0H
06
0F
0.
1/
0$
1#
0G
#490000
0!
00
01
1&
#495000
1!
10
11
0&
1X
15
02
16
#500000
0!
00
01
1&
#505000
1!
10
11
0&
0X
1W
1H
05
12
07
06
17
16
18
08
#510000
0!
00
01
1&
#515000
1!
10
11
0&
1X
0H
15
02
07
06
18
#520000
0!
00
01
1&
#525000
1!
10
11
0&
0X
1V
0W
05
12
19
08
17
16
06
1:
09
18
0:
#530000
0!
00
01
1&
#535000
1!
10
11
0&
1X
1D
15
02
1E
16
1O
0M
1F
1G
#540000
0!
00
01
1&
#545000
1!
10
11
0&
0X
0V
1P
0N
0D
05
12
08
0O
1I
1-
0/
1%
0#
0I
0E
06
0J
1J
1O
0F
0G
#550000
0!
00
01
1&
#555000
1!
10
11
0&
1X
15
02
16
#560000
0!
00
01
1&
#565000
1!
10
11
0&
0X
1W
1H
05
12
07
06
17
16
18
08
#570000
0!
00
01
1&
#575000
1!
10
11
0&
1X
0H
15
02
07
06
18
#580000
0!
00
01
1&
#585000
1!
10
11
0&
0X
1V
0W
05
12
19
08
17
16
06
1:
09
18
0:
#590000
0!
00
01
1&
#595000
1!
10
11
0&
1X
1D
15
02
1I
1E
16
0J
0O
1F
1G
#600000
0!
00
01
1&
#605000
1!
10
11
0&
0K
0X
0V
0P
0I
0D
05
12
08
0F
1.
0-
1$
0%
0E
06
0G
#610000
0!
00
01
1&
#615000
1!
10
11
0&
1X
15
02
16
#620000
0!
00
01
1&
#625000
1!
10
11
0&
0X
1W
1H
05
12
07
06
1L
1J
17
16
18
1M
1F
1G
08
#630000
0!
00
01
1&
#635000
1!
10
11
0&
1K
0W
1N
0L
0H
06
0F
0.
1/
0$
1#
0G
#640000
0!
00
01
1&
#645000
1!
10
11
0&
1X
15
02
16
#650000
0!
00
01
1&
#655000
1!
10
11
0&
0X
1W
1H
05
12
07
06
17
16
18
08
#660000
0!
00
01
1&
#665000
1!
10
11
0&
1X
0H
15
02
07
06
18
#670000
0!
00
01
1&
#675000
1!
10
11
0&
0X
1V
0W
05
12
19
08
17
16
06
1:
09
18
0:
#680000
0!
00
01
1&
#685000
1!
10
11
0&
1X
1D
15
02
1E
16
1O
0M
1F
1G
#690000
0!
00
01
1&
#695000
1!
10
11
0&
0X
0V
1P
0N
0D
05
12
08
0O
1I
1-
0/
1%
0#
0I
0E
06
0J
1J
1O
0F
0G
#700000
0!
00
01
1&
#705000
1!
10
11
0&
1X
15
02
16
#710000
0!
00
01
1&
#715000
1!
10
11
0&
0X
1W
1H
05
12
07
06
17
16
18
08
#720000
0!
00
01
1&
#725000
1!
10
11
0&
1X
0H
15
02
07
06
18
#730000
0!
00
01
1&
#735000
1!
10
11
0&
0X
1V
0W
05
12
19
08
17
16
06
1:
09
18
0:
#740000
0!
00
01
1&
#745000
1!
10
11
0&
1X
1D
15
02
1I
1E
16
0J
0O
1F
1G
#750000
0!
00
01
1&
#755000
1!
10
11
0&
0K
0X
0V
0P
0I
0D
05
12
08
0F
1.
0-
1$
0%
0E
06
0G
#760000
0!
00
01
1&
#765000
1!
10
11
0&
1X
15
02
16
#770000
0!
00
01
1&
#775000
1!
10
11
0&
0X
1W
1H
05
12
07
06
1L
1J
17
16
18
1M
1F
1G
08
#780000
0!
00
01
1&
#785000
1!
10
11
0&
1K
0W
1N
0L
0H
06
0F
0.
1/
0$
1#
0G
#790000
0!
00
01
1&
#795000
1!
10
11
0&
1X
15
02
16
#800000
0!
00
01
1&
#805000
1!
10
11
0&
0X
1W
1H
05
12
07
06
17
16
18
08
#810000
0!
00
01
1&
#815000
1!
10
11
0&
1X
0H
15
02
07
06
18
#820000
0!
00
01
1&
#825000
1!
10
11
0&
0X
1V
0W
05
12
19
08
17
16
06
1:
09
18
0:
#830000
0!
00
01
1&
#835000
1!
10
11
0&
1X
1D
15
02
1E
16
1O
0M
1F
1G
#840000
0!
00
01
1&
#845000
1!
10
11
0&
0X
0V
1P
0N
0D
05
12
08
0O
1I
1-
0/
1%
0#
0I
0E
06
0J
1J
1O
0F
0G
#850000
0!
00
01
1&
#855000
1!
10
11
0&
1X
15
02
16
#860000
0!
00
01
1&
#865000
1!
10
11
0&
0X
1W
1H
05
12
07
06
17
16
18
08
#870000
0!
00
01
1&
#875000
1!
10
11
0&
1X
0H
15
02
07
06
18
#880000
0!
00
01
1&
#885000
1!
10
11
0&
0X
1V
0W
05
12
19
08
17
16
06
1:
09
18
0:
#890000
0!
00
01
1&
#895000
1!
10
11
0&
1X
1D
15
02
1I
1E
16
0J
0O
1F
1G
#900000
0!
00
01
1&
#905000
1!
10
11
0&
0K
0X
0V
0P
0I
0D
05
12
08
0F
1.
0-
1$
0%
0E
06
0G
#910000
0!
00
01
1&
#915000
1!
10
11
0&
1X
15
02
16
#920000
0!
00
01
1&
#925000
1!
10
11
0&
0X
1W
1H
05
12
07
06
1L
1J
17
16
18
1M
1F
1G
08
#930000
0!
00
01
1&
#935000
1!
10
11
0&
1K
0W
1N
0L
0H
06
0F
0.
1/
0$
1#
0G
#940000
0!
00
01
1&
#945000
1!
10
11
0&
1X
15
02
16
#950000
0!
00
01
1&
#955000
1!
10
11
0&
0X
1W
1H
05
12
07
06
17
16
18
08
#960000
0!
00
01
1&
#965000
1!
10
11
0&
1X
0H
15
02
07
06
18
#970000
0!
00
01
1&
#975000
1!
10
11
0&
0X
1V
0W
05
12
19
08
17
16
06
1:
09
18
0:
#980000
0!
00
01
1&
#985000
1!
10
11
0&
1X
1D
15
02
1E
16
1O
0M
1F
1G
#990000
0!
00
01
1&
#995000
1!
10
11
0&
0X
0V
1P
0N
0D
05
12
08
0O
1I
1-
0/
1%
0#
0I
0E
06
0J
1J
1O
0F
0G
