shiftreg/simulation/qsim/shiftreg.msim.vcd
$comment
	File created using the following command:
		vcd file shiftreg.msim.vcd -direction
$end
$date
	Fri Jun 27 16:46:12 2025
$end
$version
	ModelSim Version 10.1d
$end
$timescale
	1ps
$end
$scope module shiftreg_vlg_vec_tst $end
$var reg 1 ! clk $end
$var reg 1 " din $end
$var reg 1 # rst_p $end
$var reg 1 $ sw $end
$var wire 1 % pout [7] $end
$var wire 1 & pout [6] $end
$var wire 1 ' pout [5] $end
$var wire 1 ( pout [4] $end
$var wire 1 ) pout [3] $end
$var wire 1 * pout [2] $end
$var wire 1 + pout [1] $end
$var wire 1 , pout [0] $end
$var wire 1 - sout $end
$var wire 1 . sampler $end
$scope module i1 $end
$var wire 1 / gnd $end
$var wire 1 0 vcc $end
$var wire 1 1 unknown $end
$var tri1 1 2 devclrn $end
$var tri1 1 3 devpor $end
$var tri1 1 4 devoe $end
$var wire 1 5 pout[0]~output_o $end
$var wire 1 6 pout[1]~output_o $end
$var wire 1 7 pout[2]~output_o $end
$var wire 1 8 pout[3]~output_o $end
$var wire 1 9 pout[4]~output_o $end
$var wire 1 : pout[5]~output_o $end
$var wire 1 ; pout[6]~output_o $end
$var wire 1 < pout[7]~output_o $end
$var wire 1 = sout~output_o $end
$var wire 1 > clk~input_o $end
$var wire 1 ? clk~inputclkctrl_outclk $end
$var wire 1 @ sw~input_o $end
$var wire 1 A din~input_o $end
$var wire 1 B sreg[1]~feeder_combout $end
$var wire 1 C rst_p~input_o $end
$var wire 1 D rst_p~inputclkctrl_outclk $end
$var wire 1 E sreg[2]~feeder_combout $end
$var wire 1 F sreg[3]~feeder_combout $end
$var wire 1 G sreg[4]~feeder_combout $end
$var wire 1 H sreg[5]~feeder_combout $end
$var wire 1 I sreg[6]~feeder_combout $end
$var wire 1 J sreg[7]~feeder_combout $end
$var wire 1 K sin~0_combout $end
$var wire 1 L sreg [7] $end
$var wire 1 M sreg [6] $end
$var wire 1 N sreg [5] $end
$var wire 1 O sreg [4] $end
$var wire 1 P sreg [3] $end
$var wire 1 Q sreg [2] $end
$var wire 1 R sreg [1] $end
$var wire 1 S sreg [0] $end
$upscope $end
$upscope $end
$enddefinitions $end
#0
$dumpvars
0!
0"
1#
1$
0,
0+
0*
0)
0(
0'
0&
0%
0-
x.
0/
10
x1
12
13
14
05
06
07
08
09
0:
0;
0<
0=
0>
0?
1@
0A
0B
1C
1D
0E
0F
0G
0H
0I
0J
0K
0S
0R
0Q
0P
0O
0N
0M
0L
$end
#5000
1!
1>
1?
0.
#10000
0#
0!
0C
0>
0D
0?
1.
#15000
1!
1>
1?
0.
#20000
1"
0!
1A
0>
0?
1.
1K
#25000
1!
1>
1?
0.
1S
1B
15
1,
#30000
0!
0>
0?
1.
#35000
1!
1>
1?
0.
1R
1E
16
1+
#40000
0!
0>
0?
1.
#45000
1!
1>
1?
0.
1Q
1F
17
1*
#50000
0"
0!
0A
0>
0?
1.
0K
#55000
1!
1>
1?
0.
0S
1P
0B
1G
05
18
0,
1)
#60000
1"
0!
1A
0>
0?
1.
1K
#65000
1!
1>
1?
0.
1S
1O
0R
1B
1H
0E
15
19
06
1,
1(
0+
#70000
0$
0"
0!
0@
0A
0>
0?
1.
0K
#75000
1!
1>
1?
0.
0S
1N
0Q
1R
0B
1I
0F
1E
05
1:
07
16
0,
1'
0*
1+
#80000
0!
0>
0?
1.
#85000
1!
1>
1?
0.
1M
0P
1Q
0R
1J
0G
1F
0E
1;
08
17
06
1&
0)
1*
0+
#90000
0!
0>
0?
1.
#95000
1!
1>
1?
0.
1L
0O
1P
0Q
1K
0H
1G
0F
1=
1<
09
18
07
1-
1%
0(
1)
0*
#100000
0!
0>
0?
1.
#105000
1!
1>
1?
0.
1S
0N
1O
0P
1B
0I
1H
0G
15
0:
19
08
1,
0'
1(
0)
#110000
0!
0>
0?
1.
#115000
1!
1>
1?
0.
0M
1N
0O
1R
0J
1I
0H
1E
0;
1:
09
16
0&
1'
0(
1+
#120000
0!
0>
0?
1.
#125000
1!
1>
1?
0.
0L
1M
0N
1Q
0K
1J
0I
1F
0=
0<
1;
0:
17
0-
0%
1&
0'
1*
#130000
0!
0>
0?
1.
#135000
1!
1>
1?
0.
0S
1L
0M
1P
0B
1K
0J
1G
05
1=
1<
0;
18
0,
1-
1%
0&
1)
#140000
0!
0>
0?
1.
#145000
1!
1>
1?
0.
1S
0L
1O
0R
1B
0K
1H
0E
15
0=
0<
19
06
1,
0-
0%
1(
0+
#150000
0!
0>
0?
1.
#155000
1!
1>
1?
0.
0S
1N
0Q
1R
0B
1I
0F
1E
05
1:
07
16
0,
1'
0*
1+
#160000
0!
0>
0?
1.
#165000
1!
1>
1?
0.
1M
0P
1Q
0R
1J
0G
1F
0E
1;
08
17
06
1&
0)
1*
0+
#170000
0!
0>
0?
1.
#175000
1!
1>
1?
0.
1L
0O
1P
0Q
1K
0H
1G
0F
1=
1<
09
18
07
1-
1%
0(
1)
0*
#180000
0!
0>
0?
1.
#185000
1!
1>
1?
0.
1S
0N
1O
0P
1B
0I
1H
0G
15
0:
19
08
1,
0'
1(
0)
#190000
0!
0>
0?
1.
#195000
1!
1>
1?
0.
0M
1N
0O
1R
0J
1I
0H
1E
0;
1:
09
16
0&
1'
0(
1+
#200000
0!
0>
0?
1.
#205000
1!
1>
1?
0.
0L
1M
0N
1Q
0K
1J
0I
1F
0=
0<
1;
0:
17
0-
0%
1&
0'
1*
#210000
0!
0>
0?
1.
#215000
1!
1>
1?
0.
0S
1L
0M
1P
0B
1K
0J
1G
05
1=
1<
0;
18
0,
1-
1%
0&
1)
#220000
0!
0>
0?
1.
#225000
1!
1>
1?
0.
1S
0L
1O
0R
1B
0K
1H
0E
15
0=
0<
19
06
1,
0-
0%
1(
0+
#230000
0!
0>
0?
1.
#235000
1!
1>
1?
0.
0S
1N
0Q
1R
0B
1I
0F
1E
05
1:
07
16
0,
1'
0*
1+
#240000
0!
0>
0?
1.
#245000
1!
1>
1?
0.
1M
0P
1Q
0R
1J
0G
1F
0E
1;
08
17
06
1&
0)
1*
0+
#250000
0!
0>
0?
1.
#255000
1!
1>
1?
0.
1L
0O
1P
0Q
1K
0H
1G
0F
1=
1<
09
18
07
1-
1%
0(
1)
0*
#260000
0!
0>
0?
1.
#265000
1!
1>
1?
0.
1S
0N
1O
0P
1B
0I
1H
0G
15
0:
19
08
1,
0'
1(
0)
#270000
0!
0>
0?
1.
#275000
1!
1>
1?
0.
0M
1N
0O
1R
0J
1I
0H
1E
0;
1:
09
16
0&
1'
0(
1+
#280000
0!
0>
0?
1.
#285000
1!
1>
1?
0.
0L
1M
0N
1Q
0K
1J
0I
1F
0=
0<
1;
0:
17
0-
0%
1&
0'
1*
#290000
0!
0>
0?
1.
#295000
1!
1>
1?
0.
0S
1L
0M
1P
0B
1K
0J
1G
05
1=
1<
0;
18
0,
1-
1%
0&
1)
#300000
0!
0>
0?
1.
#305000
1!
1>
1?
0.
1S
0L
1O
0R
1B
0K
1H
0E
15
0=
0<
19
06
1,
0-
0%
1(
0+
#310000
0!
0>
0?
1.
#315000
1!
1>
1?
0.
0S
1N
0Q
1R
0B
1I
0F
1E
05
1:
07
16
0,
1'
0*
1+
#320000
0!
0>
0?
1.
#325000
1!
1>
1?
0.
1M
0P
1Q
0R
1J
0G
1F
0E
1;
08
17
06
1&
0)
1*
0+
#330000
0!
0>
0?
1.
#335000
1!
1>
1?
0.
1L
0O
1P
0Q
1K
0H
1G
0F
1=
1<
09
18
07
1-
1%
0(
1)
0*
#340000
0!
0>
0?
1.
#345000
1!
1>
1?
0.
1S
0N
1O
0P
1B
0I
1H
0G
15
0:
19
08
1,
0'
1(
0)
#350000
0!
0>
0?
1.
#355000
1!
1>
1?
0.
0M
1N
0O
1R
0J
1I
0H
1E
0;
1:
09
16
0&
1'
0(
1+
#360000
0!
0>
0?
1.
#365000
1!
1>
1?
0.
0L
1M
0N
1Q
0K
1J
0I
1F
0=
0<
1;
0:
17
0-
0%
1&
0'
1*
#370000
0!
0>
0?
1.
#375000
1!
1>
1?
0.
0S
1L
0M
1P
0B
1K
0J
1G
05
1=
1<
0;
18
0,
1-
1%
0&
1)
#380000
0!
0>
0?
1.
#385000
1!
1>
1?
0.
1S
0L
1O
0R
1B
0K
1H
0E
15
0=
0<
19
06
1,
0-
0%
1(
0+
#390000
0!
0>
0?
1.
#395000
1!
1>
1?
0.
0S
1N
0Q
1R
0B
1I
0F
1E
05
1:
07
16
0,
1'
0*
1+
#400000
0!
0>
0?
1.
#405000
1!
1>
1?
0.
1M
0P
1Q
0R
1J
0G
1F
0E
1;
08
17
06
1&
0)
1*
0+
#410000
0!
0>
0?
1.
#415000
1!
1>
1?
0.
1L
0O
1P
0Q
1K
0H
1G
0F
1=
1<
09
18
07
1-
1%
0(
1)
0*
#420000
0!
0>
0?
1.
#425000
1!
1>
1?
0.
1S
0N
1O
0P
1B
0I
1H
0G
15
0:
19
08
1,
0'
1(
0)
#430000
0!
0>
0?
1.
#435000
1!
1>
1?
0.
0M
1N
0O
1R
0J
1I
0H
1E
0;
1:
09
16
0&
1'
0(
1+
#440000
0!
0>
0?
1.
#445000
1!
1>
1?
0.
0L
1M
0N
1Q
0K
1J
0I
1F
0=
0<
1;
0:
17
0-
0%
1&
0'
1*
#450000
0!
0>
0?
1.
#455000
1!
1>
1?
0.
0S
1L
0M
1P
0B
1K
0J
1G
05
1=
1<
0;
18
0,
1-
1%
0&
1)
#460000
0!
0>
0?
1.
#465000
1!
1>
1?
0.
1S
0L
1O
0R
1B
0K
1H
0E
15
0=
0<
19
06
1,
0-
0%
1(
0+
#470000
0!
0>
0?
1.
#475000
1!
1>
1?
0.
0S
1N
0Q
1R
0B
1I
0F
1E
05
1:
07
16
0,
1'
0*
1+
#480000
0!
0>
0?
1.
#485000
1!
1>
1?
0.
1M
0P
1Q
0R
1J
0G
1F
0E
1;
08
17
06
1&
0)
1*
0+
#490000
0!
0>
0?
1.
#495000
1!
1>
1?
0.
1L
0O
1P
0Q
1K
0H
1G
0F
1=
1<
09
18
07
1-
1%
0(
1)
0*
#500000
0!
0>
0?
1.
#505000
1!
1>
1?
0.
1S
0N
1O
0P
1B
0I
1H
0G
15
0:
19
08
1,
0'
1(
0)
#510000
0!
0>
0?
1.
#515000
1!
1>
1?
0.
0M
1N
0O
1R
0J
1I
0H
1E
0;
1:
09
16
0&
1'
0(
1+
#520000
0!
0>
0?
1.
#525000
1!
1>
1?
0.
0L
1M
0N
1Q
0K
1J
0I
1F
0=
0<
1;
0:
17
0-
0%
1&
0'
1*
#530000
0!
0>
0?
1.
#535000
1!
1>
1?
0.
0S
1L
0M
1P
0B
1K
0J
1G
05
1=
1<
0;
18
0,
1-
1%
0&
1)
#540000
0!
0>
0?
1.
#545000
1!
1>
1?
0.
1S
0L
1O
0R
1B
0K
1H
0E
15
0=
0<
19
06
1,
0-
0%
1(
0+
#550000
0!
0>
0?
1.
#555000
1!
1>
1?
0.
0S
1N
0Q
1R
0B
1I
0F
1E
05
1:
07
16
0,
1'
0*
1+
#560000
0!
0>
0?
1.
#565000
1!
1>
1?
0.
1M
0P
1Q
0R
1J
0G
1F
0E
1;
08
17
06
1&
0)
1*
0+
#570000
0!
0>
0?
1.
#575000
1!
1>
1?
0.
1L
0O
1P
0Q
1K
0H
1G
0F
1=
1<
09
18
07
1-
1%
0(
1)
0*
#580000
0!
0>
0?
1.
#585000
1!
1>
1?
0.
1S
0N
1O
0P
1B
0I
1H
0G
15
0:
19
08
1,
0'
1(
0)
#590000
0!
0>
0?
1.
#595000
1!
1>
1?
0.
0M
1N
0O
1R
0J
1I
0H
1E
0;
1:
09
16
0&
1'
0(
1+
#600000
0!
0>
0?
1.
#605000
1!
1>
1?
0.
0L
1M
0N
1Q
0K
1J
0I
1F
0=
0<
1;
0:
17
0-
0%
1&
0'
1*
#610000
0!
0>
0?
1.
#615000
1!
1>
1?
0.
0S
1L
0M
1P
0B
1K
0J
1G
05
1=
1<
0;
18
0,
1-
1%
0&
1)
#620000
0!
0>
0?
1.
#625000
1!
1>
1?
0.
1S
0L
1O
0R
1B
0K
1H
0E
15
0=
0<
19
06
1,
0-
0%
1(
0+
#630000
0!
0>
0?
1.
#635000
1!
1>
1?
0.
0S
1N
0Q
1R
0B
1I
0F
1E
05
1:
07
16
0,
1'
0*
1+
#640000
0!
0>
0?
1.
#645000
1!
1>
1?
0.
1M
0P
1Q
0R
1J
0G
1F
0E
1;
08
17
06
1&
0)
1*
0+
#650000
0!
0>
0?
1.
#655000
1!
1>
1?
0.
1L
0O
1P
0Q
1K
0H
1G
0F
1=
1<
09
18
07
1-
1%
0(
1)
0*
#660000
0!
0>
0?
1.
#665000
1!
1>
1?
0.
1S
0N
1O
0P
1B
0I
1H
0G
15
0:
19
08
1,
0'
1(
0)
#670000
0!
0>
0?
1.
#675000
1!
1>
1?
0.
0M
1N
0O
1R
0J
1I
0H
1E
0;
1:
09
16
0&
1'
0(
1+
#680000
0!
0>
0?
1.
#685000
1!
1>
1?
0.
0L
1M
0N
1Q
0K
1J
0I
1F
0=
0<
1;
0:
17
0-
0%
1&
0'
1*
#690000
0!
0>
0?
1.
#695000
1!
1>
1?
0.
0S
1L
0M
1P
0B
1K
0J
1G
05
1=
1<
0;
18
0,
1-
1%
0&
1)
#700000
0!
0>
0?
1.
#705000
1!
1>
1?
0.
1S
0L
1O
0R
1B
0K
1H
0E
15
0=
0<
19
06
1,
0-
0%
1(
0+
#710000
0!
0>
0?
1.
#715000
1!
1>
1?
0.
0S
1N
0Q
1R
0B
1I
0F
1E
05
1:
07
16
0,
1'
0*
1+
#720000
0!
0>
0?
1.
#725000
1!
1>
1?
0.
1M
0P
1Q
0R
1J
0G
1F
0E
1;
08
17
06
1&
0)
1*
0+
#730000
0!
0>
0?
1.
#735000
1!
1>
1?
0.
1L
0O
1P
0Q
1K
0H
1G
0F
1=
1<
09
18
07
1-
1%
0(
1)
0*
#740000
0!
0>
0?
1.
#745000
1!
1>
1?
0.
1S
0N
1O
0P
1B
0I
1H
0G
15
0:
19
08
1,
0'
1(
0)
#750000
0!
0>
0?
1.
#755000
1!
1>
1?
0.
0M
1N
0O
1R
0J
1I
0H
1E
0;
1:
09
16
0&
1'
0(
1+
#760000
0!
0>
0?
1.
#765000
1!
1>
1?
0.
0L
1M
0N
1Q
0K
1J
0I
1F
0=
0<
1;
0:
17
0-
0%
1&
0'
1*
#770000
0!
0>
0?
1.
#775000
1!
1>
1?
0.
0S
1L
0M
1P
0B
1K
0J
1G
05
1=
1<
0;
18
0,
1-
1%
0&
1)
#780000
0!
0>
0?
1.
#785000
1!
1>
1?
0.
1S
0L
1O
0R
1B
0K
1H
0E
15
0=
0<
19
06
1,
0-
0%
1(
0+
#790000
0!
0>
0?
1.
#795000
1!
1>
1?
0.
0S
1N
0Q
1R
0B
1I
0F
1E
05
1:
07
16
0,
1'
0*
1+
#800000
0!
0>
0?
1.
#805000
1!
1>
1?
0.
1M
0P
1Q
0R
1J
0G
1F
0E
1;
08
17
06
1&
0)
1*
0+
#810000
0!
0>
0?
1.
#815000
1!
1>
1?
0.
1L
0O
1P
0Q
1K
0H
1G
0F
1=
1<
09
18
07
1-
1%
0(
1)
0*
#820000
0!
0>
0?
1.
#825000
1!
1>
1?
0.
1S
0N
1O
0P
1B
0I
1H
0G
15
0:
19
08
1,
0'
1(
0)
#830000
0!
0>
0?
1.
#835000
1!
1>
1?
0.
0M
1N
0O
1R
0J
1I
0H
1E
0;
1:
09
16
0&
1'
0(
1+
#840000
0!
0>
0?
1.
#845000
1!
1>
1?
0.
0L
1M
0N
1Q
0K
1J
0I
1F
0=
0<
1;
0:
17
0-
0%
1&
0'
1*
#850000
0!
0>
0?
1.
#855000
1!
1>
1?
0.
0S
1L
0M
1P
0B
1K
0J
1G
05
1=
1<
0;
18
0,
1-
1%
0&
1)
#860000
0!
0>
0?
1.
#865000
1!
1>
1?
0.
1S
0L
1O
0R
1B
0K
1H
0E
15
0=
0<
19
06
1,
0-
0%
1(
0+
#870000
0!
0>
0?
1.
#875000
1!
1>
1?
0.
0S
1N
0Q
1R
0B
1I
0F
1E
05
1:
07
16
0,
1'
0*
1+
#880000
0!
0>
0?
1.
#885000
1!
1>
1?
0.
1M
0P
1Q
0R
1J
0G
1F
0E
1;
08
17
06
1&
0)
1*
0+
#890000
0!
0>
0?
1.
#895000
1!
1>
1?
0.
1L
0O
1P
0Q
1K
0H
1G
0F
1=
1<
09
18
07
1-
1%
0(
1)
0*
#900000
0!
0>
0?
1.
#905000
1!
1>
1?
0.
1S
0N
1O
0P
1B
0I
1H
0G
15
0:
19
08
1,
0'
1(
0)
#910000
0!
0>
0?
1.
#915000
1!
1>
1?
0.
0M
1N
0O
1R
0J
1I
0H
1E
0;
1:
09
16
0&
1'
0(
1+
#920000
0!
0>
0?
1.
#925000
1!
1>
1?
0.
0L
1M
0N
1Q
0K
1J
0I
1F
0=
0<
1;
0:
17
0-
0%
1&
0'
1*
#930000
0!
0>
0?
1.
#935000
1!
1>
1?
0.
0S
1L
0M
1P
0B
1K
0J
1G
05
1=
1<
0;
18
0,
1-
1%
0&
1)
#940000
0!
0>
0?
1.
#945000
1!
1>
1?
0.
1S
0L
1O
0R
1B
0K
1H
0E
15
0=
0<
19
06
1,
0-
0%
1(
0+
#950000
0!
0>
0?
1.
#955000
1!
1>
1?
0.
0S
1N
0Q
1R
0B
1I
0F
1E
05
1:
07
16
0,
1'
0*
1+
#960000
0!
0>
0?
1.
#965000
1!
1>
1?
0.
1M
0P
1Q
0R
1J
0G
1F
0E
1;
08
17
06
1&
0)
1*
0+
#970000
0!
0>
0?
1.
#975000
1!
1>
1?
0.
1L
0O
1P
0Q
1K
0H
1G
0F
1=
1<
09
18
07
1-
1%
0(
1)
0*
#980000
0!
0>
0?
1.
#985000
1!
1>
1?
0.
1S
0N
1O
0P
1B
0I
1H
0G
15
0:
19
08
1,
0'
1(
0)
#990000
0!
0>
0?
1.
#995000
1!
1>
1?
0.
0M
1N
0O
1R
0J
1I
0H
1E
0;
1:
09
16
0&
1'
0(
1+
