AccumDC/bounce_avoid/simulation/qsim/bounce_avoid.msim.vcd
$comment
	File created using the following command:
		vcd file bounce_avoid.msim.vcd -direction
$end
$date
	Fri Jun 27 12:33:33 2025
$end
$version
	ModelSim Version 10.1d
$end
$timescale
	1ps
$end
$scope module bounce_avoid_vlg_vec_tst $end
$var reg 1 ! clk $end
$var reg 1 " din $end
$var reg 1 # rst_p $end
$var wire 1 $ dout $end
$var wire 1 % sampler $end
$scope module i1 $end
$var wire 1 & gnd $end
$var wire 1 ' vcc $end
$var wire 1 ( unknown $end
$var tri1 1 ) devclrn $end
$var tri1 1 * devpor $end
$var tri1 1 + devoe $end
$var wire 1 , dout~output_o $end
$var wire 1 - clk~input_o $end
$var wire 1 . clk~inputclkctrl_outclk $end
$var wire 1 / din~input_o $end
$var wire 1 0 rst_p~input_o $end
$var wire 1 1 rst_p~inputclkctrl_outclk $end
$var wire 1 2 current.s0~q $end
$var wire 1 3 next.s1~0_combout $end
$var wire 1 4 current.s1~q $end
$var wire 1 5 next.s2~0_combout $end
$var wire 1 6 current.s2~q $end
$var wire 1 7 next.s3~0_combout $end
$var wire 1 8 current.s3~q $end
$var wire 1 9 next.s4~0_combout $end
$var wire 1 : current.s4~q $end
$var wire 1 ; Selector0~0_combout $end
$var wire 1 < current.s5~q $end
$upscope $end
$upscope $end
$enddefinitions $end
#0
$dumpvars
0!
1"
1#
0$
x%
0&
1'
x(
1)
1*
1+
0,
0-
0.
1/
10
11
02
03
04
05
06
07
08
09
0:
1;
0<
$end
#5000
1!
1-
1.
0%
#10000
0#
0!
00
0-
01
0.
1%
#15000
1!
1-
1.
0%
12
1<
1,
1$
#20000
0!
0-
0.
1%
#25000
1!
1-
1.
0%
#30000
0!
0-
0.
1%
#35000
1!
1-
1.
0%
#40000
0!
0-
0.
1%
#45000
1!
1-
1.
0%
#50000
0!
0-
0.
1%
#55000
1!
1-
1.
0%
#60000
0"
0!
0/
0-
0.
1%
13
#61150
1"
1/
0%
03
#62893
0"
0/
1%
13
#64055
1"
1/
0%
03
#65000
1!
1-
1.
1%
#65798
0"
0/
0%
13
#67396
1"
1/
1%
03
#67977
0"
0/
0%
13
#69429
1"
1/
1%
03
#70000
0!
0-
0.
0%
#71172
0"
0/
1%
13
#75000
1!
1-
1.
0%
14
02
15
03
#80000
0!
0-
0.
1%
#85000
1!
1-
1.
0%
16
04
17
05
#90000
0!
0-
0.
1%
#95000
1!
1-
1.
0%
18
06
19
07
#100000
0!
0-
0.
1%
#105000
1!
1-
1.
0%
1:
08
0;
09
#110000
0!
0-
0.
1%
#115000
1!
1-
1.
0%
0:
0<
0,
0$
#120000
0!
0-
0.
1%
#125000
1!
1-
1.
0%
#130000
0!
0-
0.
1%
#135000
1!
1-
1.
0%
#140000
0!
0-
0.
1%
#145000
1!
1-
1.
0%
#150000
0!
0-
0.
1%
#155000
1!
1-
1.
0%
#160000
0!
0-
0.
1%
#165000
1!
1-
1.
0%
#170000
0!
0-
0.
1%
#175000
1!
1-
1.
0%
#180000
0!
0-
0.
1%
#185000
1!
1-
1.
0%
#190000
0!
0-
0.
1%
#195000
1!
1-
1.
0%
#200000
0!
0-
0.
1%
#205000
1!
1-
1.
0%
#210000
0!
0-
0.
1%
#215000
1!
1-
1.
0%
#220000
0!
0-
0.
1%
#225000
1!
1-
1.
0%
#230000
0!
0-
0.
1%
#235000
1!
1-
1.
0%
#240000
0!
0-
0.
1%
#245000
1!
1-
1.
0%
#250000
0!
0-
0.
1%
#255000
1!
1-
1.
0%
#260000
0!
0-
0.
1%
#265000
1!
1-
1.
0%
#270000
0!
0-
0.
1%
#275000
1!
1-
1.
0%
#280000
0!
0-
0.
1%
#285000
1!
1-
1.
0%
#290000
0!
0-
0.
1%
#295000
1!
1-
1.
0%
#300000
0!
0-
0.
1%
#305000
1!
1-
1.
0%
#310000
0!
0-
0.
1%
#315000
1!
1-
1.
0%
#320000
0!
0-
0.
1%
#325000
1!
1-
1.
0%
#330000
0!
0-
0.
1%
#335000
1!
1-
1.
0%
#340000
0!
0-
0.
1%
#345000
1!
1-
1.
0%
#350000
0!
0-
0.
1%
#355000
1!
1-
1.
0%
#360000
0!
0-
0.
1%
#365000
1!
1-
1.
0%
#370000
0!
0-
0.
1%
#375000
1!
1-
1.
0%
#380000
0!
0-
0.
1%
#385000
1!
1-
1.
0%
#390000
0!
0-
0.
1%
#395000
1!
1-
1.
0%
#400000
0!
0-
0.
1%
#405000
1!
1-
1.
0%
#410000
0!
0-
0.
1%
#415000
1!
1-
1.
0%
#420000
0!
0-
0.
1%
#425000
1!
1-
1.
0%
#430000
0!
0-
0.
1%
#435000
1!
1-
1.
0%
#440000
0!
0-
0.
1%
#445000
1!
1-
1.
0%
#450000
0!
0-
0.
1%
#455000
1!
1-
1.
0%
#460000
0!
0-
0.
1%
#465000
1!
1-
1.
0%
#470000
0!
0-
0.
1%
#475000
1!
1-
1.
0%
#480000
0!
0-
0.
1%
#485000
1!
1-
1.
0%
#490000
0!
0-
0.
1%
#495000
1!
1-
1.
0%
#500000
0!
0-
0.
1%
#505000
1!
1-
1.
0%
#510000
0!
0-
0.
1%
#515000
1!
1-
1.
0%
#520000
0!
0-
0.
1%
#525000
1!
1-
1.
0%
#530000
0!
0-
0.
1%
#535000
1!
1-
1.
0%
#540000
0!
0-
0.
1%
#545000
1!
1-
1.
0%
#550000
0!
0-
0.
1%
#555000
1!
1-
1.
0%
#560000
0!
0-
0.
1%
#565000
1!
1-
1.
0%
#570000
0!
0-
0.
1%
#575000
1!
1-
1.
0%
#580000
0!
0-
0.
1%
#585000
1!
1-
1.
0%
#590000
0!
0-
0.
1%
#595000
1!
1-
1.
0%
#600000
0!
0-
0.
1%
#605000
1!
1-
1.
0%
#610000
0!
0-
0.
1%
#615000
1!
1-
1.
0%
#620000
0!
0-
0.
1%
#625000
1!
1-
1.
0%
#630000
0!
0-
0.
1%
#635000
1!
1-
1.
0%
#640000
0!
0-
0.
1%
#645000
1!
1-
1.
0%
