AccumDC/simulation/qsim/AccumDC.msim.vcd
$comment
	File created using the following command:
		vcd file AccumDC.msim.vcd -direction
$end
$date
	Fri Jun 27 13:34:01 2025
$end
$version
	ModelSim Version 10.1d
$end
$timescale
	1ps
$end
$scope module AccumDC_vlg_vec_tst $end
$var reg 1 ! btn $end
$var reg 1 " clk $end
$var reg 1 # rst_p $end
$var wire 1 $ dout [7] $end
$var wire 1 % dout [6] $end
$var wire 1 & dout [5] $end
$var wire 1 ' dout [4] $end
$var wire 1 ( dout [3] $end
$var wire 1 ) dout [2] $end
$var wire 1 * dout [1] $end
$var wire 1 + dout [0] $end
$var wire 1 , sampler $end
$scope module i1 $end
$var wire 1 - gnd $end
$var wire 1 . vcc $end
$var wire 1 / unknown $end
$var tri1 1 0 devclrn $end
$var tri1 1 1 devpor $end
$var tri1 1 2 devoe $end
$var wire 1 3 dout[0]~output_o $end
$var wire 1 4 dout[1]~output_o $end
$var wire 1 5 dout[2]~output_o $end
$var wire 1 6 dout[3]~output_o $end
$var wire 1 7 dout[4]~output_o $end
$var wire 1 8 dout[5]~output_o $end
$var wire 1 9 dout[6]~output_o $end
$var wire 1 : dout[7]~output_o $end
$var wire 1 ; clk~input_o $end
$var wire 1 < clk~inputclkctrl_outclk $end
$var wire 1 = btn~input_o $end
$var wire 1 > rst_p~input_o $end
$var wire 1 ? rst_p~inputclkctrl_outclk $end
$var wire 1 @ b0|current.s0~q $end
$var wire 1 A b0|next.s1~0_combout $end
$var wire 1 B b0|current.s1~q $end
$var wire 1 C b0|next.s2~0_combout $end
$var wire 1 D b0|current.s2~q $end
$var wire 1 E b0|next.s3~0_combout $end
$var wire 1 F b0|current.s3~q $end
$var wire 1 G b0|next.s4~0_combout $end
$var wire 1 H b0|current.s4~q $end
$var wire 1 I b0|Selector0~0_combout $end
$var wire 1 J b0|current.s5~feeder_combout $end
$var wire 1 K b0|current.s5~q $end
$var wire 1 L b0|current.s5~clkctrl_outclk $end
$var wire 1 M a0|dout[0]~21_combout $end
$var wire 1 N a0|dout[1]~7_combout $end
$var wire 1 O a0|dout[1]~8 $end
$var wire 1 P a0|dout[2]~9_combout $end
$var wire 1 Q a0|dout[2]~10 $end
$var wire 1 R a0|dout[3]~11_combout $end
$var wire 1 S a0|dout[3]~12 $end
$var wire 1 T a0|dout[4]~13_combout $end
$var wire 1 U a0|dout[4]~14 $end
$var wire 1 V a0|dout[5]~15_combout $end
$var wire 1 W a0|dout[5]~16 $end
$var wire 1 X a0|dout[6]~17_combout $end
$var wire 1 Y a0|dout[6]~18 $end
$var wire 1 Z a0|dout[7]~19_combout $end
$var wire 1 [ a0|dout [7] $end
$var wire 1 \ a0|dout [6] $end
$var wire 1 ] a0|dout [5] $end
$var wire 1 ^ a0|dout [4] $end
$var wire 1 _ a0|dout [3] $end
$var wire 1 ` a0|dout [2] $end
$var wire 1 a a0|dout [1] $end
$var wire 1 b a0|dout [0] $end
$upscope $end
$upscope $end
$enddefinitions $end
#0
$dumpvars
0!
0"
1#
0+
0*
0)
0(
0'
0&
0%
0$
x,
0-
1.
x/
10
11
12
03
04
05
06
07
08
09
0:
0;
0<
0=
1>
1?
0@
0A
0B
0C
0D
0E
0F
0G
0H
0I
0J
0K
0L
1M
0N
0O
0P
1Q
0R
0S
0T
1U
0V
0W
0X
1Y
0Z
0b
0a
0`
0_
0^
0]
0\
0[
$end
#5000
1"
1;
1<
0,
#10000
0#
0"
0>
0;
0?
0<
1,
#15000
1"
1;
1<
0,
#20000
1!
0"
1=
0;
0<
1,
1I
1J
#25000
1"
1;
1<
0,
1K
1@
1L
1b
1N
0M
13
1+
#30000
0"
0;
0<
1,
#35000
1"
1;
1<
0,
#40000
0"
0;
0<
1,
#45000
1"
1;
1<
0,
#50000
0"
0;
0<
1,
#55000
1"
1;
1<
0,
#60000
0!
0"
0=
0;
0<
1,
1A
#65000
1"
1;
1<
0,
1B
0@
1C
0A
#70000
0"
0;
0<
1,
#75000
1"
1;
1<
0,
1D
0B
1E
0C
#80000
0"
0;
0<
1,
#85000
1"
1;
1<
0,
1F
0D
1G
0E
#90000
0"
0;
0<
1,
#95000
1"
1;
1<
0,
1H
0F
0I
0G
0J
#100000
0"
0;
0<
1,
#105000
1"
1;
1<
0,
0K
0H
0L
#110000
0"
0;
0<
1,
#115000
1"
1;
1<
0,
#120000
0"
0;
0<
1,
#125000
1"
1;
1<
0,
#130000
0"
0;
0<
1,
#135000
1"
1;
1<
0,
#140000
0"
0;
0<
1,
#145000
1"
1;
1<
0,
#150000
0"
0;
0<
1,
#155000
1"
1;
1<
0,
#160000
0"
0;
0<
1,
#165000
1"
1;
1<
0,
#170000
1!
0"
1=
0;
0<
1,
1I
1J
#175000
1"
1;
1<
0,
1K
1@
1L
1a
0b
1M
14
03
1*
0+
#180000
0!
0"
0=
0;
0<
1,
1A
#185000
1"
1;
1<
0,
1B
0@
1C
0A
#190000
0"
0;
0<
1,
#195000
1"
1;
1<
0,
1D
0B
1E
0C
#200000
0"
0;
0<
1,
#205000
1"
1;
1<
0,
1F
0D
1G
0E
#210000
0"
0;
0<
1,
#215000
1"
1;
1<
0,
1H
0F
0I
0G
0J
#220000
0"
0;
0<
1,
#225000
1"
1;
1<
0,
0K
0H
0L
#230000
0"
0;
0<
1,
#235000
1"
1;
1<
0,
#240000
0"
0;
0<
1,
#245000
1"
1;
1<
0,
#250000
0"
0;
0<
1,
#255000
1"
1;
1<
0,
#260000
0"
0;
0<
1,
#265000
1"
1;
1<
0,
#270000
0"
0;
0<
1,
#275000
1"
1;
1<
0,
#280000
1!
0"
1=
0;
0<
1,
1I
1J
#285000
1"
1;
1<
0,
1K
1@
1L
1b
1O
0N
0M
13
1+
1P
#290000
0"
0;
0<
1,
#295000
1"
1;
1<
0,
#300000
0"
0;
0<
1,
#305000
1"
1;
1<
0,
#310000
0"
0;
0<
1,
#315000
1"
1;
1<
0,
#320000
0!
0"
0=
0;
0<
1,
1A
#325000
1"
1;
1<
0,
1B
0@
1C
0A
#330000
0"
0;
0<
1,
#335000
1"
1;
1<
0,
1D
0B
1E
0C
#340000
0"
0;
0<
1,
#345000
1"
1;
1<
0,
1F
0D
1G
0E
#350000
0"
0;
0<
1,
#355000
1"
1;
1<
0,
1H
0F
0I
0G
0J
#360000
0"
0;
0<
1,
#365000
1"
1;
1<
0,
0K
0H
0L
#370000
0"
0;
0<
1,
#375000
1"
1;
1<
0,
#380000
0"
0;
0<
1,
#385000
1"
1;
1<
0,
#390000
0"
0;
0<
1,
#395000
1"
1;
1<
0,
#400000
0"
0;
0<
1,
#405000
1"
1;
1<
0,
#410000
0"
0;
0<
1,
#415000
1"
1;
1<
0,
#420000
0"
0;
0<
1,
#425000
1"
1;
1<
0,
#430000
0"
0;
0<
1,
#435000
1"
1;
1<
0,
#440000
0"
0;
0<
1,
#445000
1"
1;
1<
0,
#450000
0"
0;
0<
1,
#455000
1"
1;
1<
0,
#460000
0"
0;
0<
1,
#465000
1"
1;
1<
0,
#470000
0"
0;
0<
1,
#475000
1"
1;
1<
0,
#480000
0"
0;
0<
1,
#485000
1"
1;
1<
0,
#490000
0"
0;
0<
1,
#495000
1"
1;
1<
0,
#500000
0"
0;
0<
1,
#505000
1"
1;
1<
0,
#510000
0"
0;
0<
1,
#515000
1"
1;
1<
0,
#520000
0"
0;
0<
1,
#525000
1"
1;
1<
0,
#530000
0"
0;
0<
1,
#535000
1"
1;
1<
0,
#540000
0"
0;
0<
1,
#545000
1"
1;
1<
0,
#550000
0"
0;
0<
1,
#555000
1"
1;
1<
0,
#560000
0"
0;
0<
1,
#565000
1"
1;
1<
0,
#570000
0"
0;
0<
1,
#575000
1"
1;
1<
0,
#580000
0"
0;
0<
1,
#585000
1"
1;
1<
0,
#590000
0"
0;
0<
1,
#595000
1"
1;
1<
0,
#600000
0"
0;
0<
1,
#605000
1"
1;
1<
0,
#610000
0"
0;
0<
1,
#615000
1"
1;
1<
0,
#620000
0"
0;
0<
1,
#625000
1"
1;
1<
0,
#630000
0"
0;
0<
1,
#635000
1"
1;
1<
0,
#640000
0"
0;
0<
1,
#645000
1"
1;
1<
0,
#650000
0"
0;
0<
1,
#655000
1"
1;
1<
0,
#660000
0"
0;
0<
1,
#665000
1"
1;
1<
0,
#670000
0"
0;
0<
1,
#675000
1"
1;
1<
0,
#680000
0"
0;
0<
1,
#685000
1"
1;
1<
0,
#690000
0"
0;
0<
1,
#695000
1"
1;
1<
0,
#700000
0"
0;
0<
1,
#705000
1"
1;
1<
0,
#710000
0"
0;
0<
1,
#715000
1"
1;
1<
0,
#720000
0"
0;
0<
1,
#725000
1"
1;
1<
0,
#730000
0"
0;
0<
1,
#735000
1"
1;
1<
0,
#740000
0"
0;
0<
1,
#745000
1"
1;
1<
0,
#750000
0"
0;
0<
1,
#755000
1"
1;
1<
0,
#760000
0"
0;
0<
1,
#765000
1"
1;
1<
0,
#770000
0"
0;
0<
1,
#775000
1"
1;
1<
0,
#780000
0"
0;
0<
1,
#785000
1"
1;
1<
0,
#790000
0"
0;
0<
1,
#795000
1"
1;
1<
0,
#800000
0"
0;
0<
1,
#805000
1"
1;
1<
0,
#810000
0"
0;
0<
1,
#815000
1"
1;
1<
0,
#820000
0"
0;
0<
1,
#825000
1"
1;
1<
0,
#830000
0"
0;
0<
1,
#835000
1"
1;
1<
0,
#840000
0"
0;
0<
1,
#845000
1"
1;
1<
0,
#850000
0"
0;
0<
1,
#855000
1"
1;
1<
0,
#860000
0"
0;
0<
1,
#865000
1"
1;
1<
0,
#870000
0"
0;
0<
1,
#875000
1"
1;
1<
0,
#880000
0"
0;
0<
1,
#885000
1"
1;
1<
0,
#890000
0"
0;
0<
1,
#895000
1"
1;
1<
0,
#900000
0"
0;
0<
1,
#905000
1"
1;
1<
0,
#910000
0"
0;
0<
1,
#915000
1"
1;
1<
0,
#920000
0"
0;
0<
1,
#925000
1"
1;
1<
0,
#930000
0"
0;
0<
1,
#935000
1"
1;
1<
0,
#940000
0"
0;
0<
1,
#945000
1"
1;
1<
0,
#950000
0"
0;
0<
1,
#955000
1"
1;
1<
0,
#960000
0"
0;
0<
1,
#965000
1"
1;
1<
0,
#970000
0"
0;
0<
1,
#975000
1"
1;
1<
0,
#980000
0"
0;
0<
1,
#985000
1"
1;
1<
0,
#990000
0"
0;
0<
1,
#995000
1"
1;
1<
0,
