AccumDC/accum/simulation/qsim/accum.msim.vcd
$comment
	File created using the following command:
		vcd file accum.msim.vcd -direction
$end
$date
	Thu Jun 26 21:03:44 2025
$end
$version
	ModelSim Version 10.1d
$end
$timescale
	1ps
$end
$scope module accum_vlg_vec_tst $end
$var reg 1 ! clk $end
$var reg 1 " en $end
$var reg 1 # rst_p $end
$var wire 1 $ dout [31] $end
$var wire 1 % dout [30] $end
$var wire 1 & dout [29] $end
$var wire 1 ' dout [28] $end
$var wire 1 ( dout [27] $end
$var wire 1 ) dout [26] $end
$var wire 1 * dout [25] $end
$var wire 1 + dout [24] $end
$var wire 1 , dout [23] $end
$var wire 1 - dout [22] $end
$var wire 1 . dout [21] $end
$var wire 1 / dout [20] $end
$var wire 1 0 dout [19] $end
$var wire 1 1 dout [18] $end
$var wire 1 2 dout [17] $end
$var wire 1 3 dout [16] $end
$var wire 1 4 dout [15] $end
$var wire 1 5 dout [14] $end
$var wire 1 6 dout [13] $end
$var wire 1 7 dout [12] $end
$var wire 1 8 dout [11] $end
$var wire 1 9 dout [10] $end
$var wire 1 : dout [9] $end
$var wire 1 ; dout [8] $end
$var wire 1 < dout [7] $end
$var wire 1 = dout [6] $end
$var wire 1 > dout [5] $end
$var wire 1 ? dout [4] $end
$var wire 1 @ dout [3] $end
$var wire 1 A dout [2] $end
$var wire 1 B dout [1] $end
$var wire 1 C dout [0] $end
$var wire 1 D sampler $end
$scope module i1 $end
$var wire 1 E gnd $end
$var wire 1 F vcc $end
$var wire 1 G unknown $end
$var tri1 1 H devclrn $end
$var tri1 1 I devpor $end
$var tri1 1 J devoe $end
$var wire 1 K dout[0]~output_o $end
$var wire 1 L dout[1]~output_o $end
$var wire 1 M dout[2]~output_o $end
$var wire 1 N dout[3]~output_o $end
$var wire 1 O dout[4]~output_o $end
$var wire 1 P dout[5]~output_o $end
$var wire 1 Q dout[6]~output_o $end
$var wire 1 R dout[7]~output_o $end
$var wire 1 S dout[8]~output_o $end
$var wire 1 T dout[9]~output_o $end
$var wire 1 U dout[10]~output_o $end
$var wire 1 V dout[11]~output_o $end
$var wire 1 W dout[12]~output_o $end
$var wire 1 X dout[13]~output_o $end
$var wire 1 Y dout[14]~output_o $end
$var wire 1 Z dout[15]~output_o $end
$var wire 1 [ dout[16]~output_o $end
$var wire 1 \ dout[17]~output_o $end
$var wire 1 ] dout[18]~output_o $end
$var wire 1 ^ dout[19]~output_o $end
$var wire 1 _ dout[20]~output_o $end
$var wire 1 ` dout[21]~output_o $end
$var wire 1 a dout[22]~output_o $end
$var wire 1 b dout[23]~output_o $end
$var wire 1 c dout[24]~output_o $end
$var wire 1 d dout[25]~output_o $end
$var wire 1 e dout[26]~output_o $end
$var wire 1 f dout[27]~output_o $end
$var wire 1 g dout[28]~output_o $end
$var wire 1 h dout[29]~output_o $end
$var wire 1 i dout[30]~output_o $end
$var wire 1 j dout[31]~output_o $end
$var wire 1 k clk~input_o $end
$var wire 1 l clk~inputclkctrl_outclk $end
$var wire 1 m en~input_o $end
$var wire 1 n dout[0]~31_combout $end
$var wire 1 o rst_p~input_o $end
$var wire 1 p rst_p~inputclkctrl_outclk $end
$var wire 1 q dout[0]~reg0_q $end
$var wire 1 r dout[1]~32_combout $end
$var wire 1 s dout[1]~reg0_q $end
$var wire 1 t dout[1]~33 $end
$var wire 1 u dout[2]~34_combout $end
$var wire 1 v dout[2]~reg0_q $end
$var wire 1 w dout[2]~35 $end
$var wire 1 x dout[3]~36_combout $end
$var wire 1 y dout[3]~reg0_q $end
$var wire 1 z dout[3]~37 $end
$var wire 1 { dout[4]~38_combout $end
$var wire 1 | dout[4]~reg0_q $end
$var wire 1 } dout[4]~39 $end
$var wire 1 ~ dout[5]~40_combout $end
$var wire 1 !! dout[5]~reg0_q $end
$var wire 1 "! dout[5]~41 $end
$var wire 1 #! dout[6]~42_combout $end
$var wire 1 $! dout[6]~reg0_q $end
$var wire 1 %! dout[6]~43 $end
$var wire 1 &! dout[7]~44_combout $end
$var wire 1 '! dout[7]~reg0_q $end
$var wire 1 (! dout[7]~45 $end
$var wire 1 )! dout[8]~46_combout $end
$var wire 1 *! dout[8]~reg0_q $end
$var wire 1 +! dout[8]~47 $end
$var wire 1 ,! dout[9]~48_combout $end
$var wire 1 -! dout[9]~reg0_q $end
$var wire 1 .! dout[9]~49 $end
$var wire 1 /! dout[10]~50_combout $end
$var wire 1 0! dout[10]~reg0_q $end
$var wire 1 1! dout[10]~51 $end
$var wire 1 2! dout[11]~52_combout $end
$var wire 1 3! dout[11]~reg0_q $end
$var wire 1 4! dout[11]~53 $end
$var wire 1 5! dout[12]~54_combout $end
$var wire 1 6! dout[12]~reg0_q $end
$var wire 1 7! dout[12]~55 $end
$var wire 1 8! dout[13]~56_combout $end
$var wire 1 9! dout[13]~reg0_q $end
$var wire 1 :! dout[13]~57 $end
$var wire 1 ;! dout[14]~58_combout $end
$var wire 1 <! dout[14]~reg0_q $end
$var wire 1 =! dout[14]~59 $end
$var wire 1 >! dout[15]~60_combout $end
$var wire 1 ?! dout[15]~reg0_q $end
$var wire 1 @! dout[15]~61 $end
$var wire 1 A! dout[16]~62_combout $end
$var wire 1 B! dout[16]~reg0_q $end
$var wire 1 C! dout[16]~63 $end
$var wire 1 D! dout[17]~64_combout $end
$var wire 1 E! dout[17]~reg0_q $end
$var wire 1 F! dout[17]~65 $end
$var wire 1 G! dout[18]~66_combout $end
$var wire 1 H! dout[18]~reg0_q $end
$var wire 1 I! dout[18]~67 $end
$var wire 1 J! dout[19]~68_combout $end
$var wire 1 K! dout[19]~reg0_q $end
$var wire 1 L! dout[19]~69 $end
$var wire 1 M! dout[20]~70_combout $end
$var wire 1 N! dout[20]~reg0_q $end
$var wire 1 O! dout[20]~71 $end
$var wire 1 P! dout[21]~72_combout $end
$var wire 1 Q! dout[21]~reg0_q $end
$var wire 1 R! dout[21]~73 $end
$var wire 1 S! dout[22]~74_combout $end
$var wire 1 T! dout[22]~reg0_q $end
$var wire 1 U! dout[22]~75 $end
$var wire 1 V! dout[23]~76_combout $end
$var wire 1 W! dout[23]~reg0_q $end
$var wire 1 X! dout[23]~77 $end
$var wire 1 Y! dout[24]~78_combout $end
$var wire 1 Z! dout[24]~reg0_q $end
$var wire 1 [! dout[24]~79 $end
$var wire 1 \! dout[25]~80_combout $end
$var wire 1 ]! dout[25]~reg0_q $end
$var wire 1 ^! dout[25]~81 $end
$var wire 1 _! dout[26]~82_combout $end
$var wire 1 `! dout[26]~reg0_q $end
$var wire 1 a! dout[26]~83 $end
$var wire 1 b! dout[27]~84_combout $end
$var wire 1 c! dout[27]~reg0_q $end
$var wire 1 d! dout[27]~85 $end
$var wire 1 e! dout[28]~86_combout $end
$var wire 1 f! dout[28]~reg0_q $end
$var wire 1 g! dout[28]~87 $end
$var wire 1 h! dout[29]~88_combout $end
$var wire 1 i! dout[29]~reg0_q $end
$var wire 1 j! dout[29]~89 $end
$var wire 1 k! dout[30]~90_combout $end
$var wire 1 l! dout[30]~reg0_q $end
$var wire 1 m! dout[30]~91 $end
$var wire 1 n! dout[31]~92_combout $end
$var wire 1 o! dout[31]~reg0_q $end
$upscope $end
$upscope $end
$enddefinitions $end
#0
$dumpvars
0!
1"
0#
0C
0B
0A
0@
0?
0>
0=
0<
0;
0:
09
08
07
06
05
04
03
02
01
00
0/
0.
0-
0,
0+
0*
0)
0(
0'
0&
0%
0$
xD
0E
1F
xG
1H
1I
1J
0K
0L
0M
0N
0O
0P
0Q
0R
0S
0T
0U
0V
0W
0X
0Y
0Z
0[
0\
0]
0^
0_
0`
0a
0b
0c
0d
0e
0f
0g
0h
0i
0j
0k
0l
1m
1n
0o
0p
0q
0r
0s
0t
0u
0v
1w
0x
0y
0z
0{
0|
1}
0~
0!!
0"!
0#!
0$!
1%!
0&!
0'!
0(!
0)!
0*!
1+!
0,!
0-!
0.!
0/!
00!
11!
02!
03!
04!
05!
06!
17!
08!
09!
0:!
0;!
0<!
1=!
0>!
0?!
0@!
0A!
0B!
1C!
0D!
0E!
0F!
0G!
0H!
1I!
0J!
0K!
0L!
0M!
0N!
1O!
0P!
0Q!
0R!
0S!
0T!
1U!
0V!
0W!
0X!
0Y!
0Z!
1[!
0\!
0]!
0^!
0_!
0`!
1a!
0b!
0c!
0d!
0e!
0f!
1g!
0h!
0i!
0j!
0k!
0l!
1m!
0n!
0o!
$end
#5000
1!
1k
1l
0D
1q
1r
0n
1K
1C
#10000
0!
0k
0l
1D
#15000
1!
1k
1l
0D
1s
0q
1n
1L
0K
1B
0C
#20000
0!
0k
0l
1D
#25000
1!
1k
1l
0D
1q
1t
0r
0n
1K
1C
1u
#30000
0!
0k
0l
1D
#35000
1!
1k
1l
0D
1v
0s
0q
0w
0u
0t
1n
1M
0L
0K
1A
0B
0C
1x
1w
1u
0x
#40000
0!
0k
0l
1D
#45000
1!
1k
1l
0D
1q
1r
0n
1K
1C
#50000
0!
0k
0l
1D
#55000
1!
1k
1l
0D
1s
0q
1n
1L
0K
1B
0C
#60000
0!
0k
0l
1D
#65000
1!
1k
1l
0D
1q
1t
0r
0n
1K
1C
0w
0u
1x
#70000
0!
0k
0l
1D
#75000
1!
1k
1l
0D
1y
0v
0s
0q
1z
0x
1w
1u
0t
1n
1N
0M
0L
0K
1@
0A
0B
0C
1{
0z
1x
0u
0{
#80000
0!
0k
0l
1D
#85000
1!
1k
1l
0D
1q
1r
0n
1K
1C
#90000
0!
0k
0l
1D
#95000
1!
1k
1l
0D
1s
0q
1n
1L
0K
1B
0C
#100000
0!
0k
0l
1D
#105000
1!
1k
1l
0D
1q
1t
0r
0n
1K
1C
1u
#110000
0!
0k
0l
1D
#115000
1!
1k
1l
0D
1v
0s
0q
0w
0u
0t
1n
1M
0L
0K
1A
0B
0C
1z
0x
1w
1u
1{
0z
1x
0{
#120000
0!
0k
0l
1D
#125000
1!
1k
1l
0D
1q
1r
0n
1K
1C
#130000
0!
0k
0l
1D
#135000
1!
1k
1l
0D
1s
0q
1n
1L
0K
1B
0C
#140000
0!
0k
0l
1D
#145000
1!
1k
1l
0D
1q
1t
0r
0n
1K
1C
0w
0u
1z
0x
1{
#150000
0!
0k
0l
1D
#155000
1!
1k
1l
0D
1|
0y
0v
0s
0q
0}
0{
0z
1x
1w
1u
0t
1n
1O
0N
0M
0L
0K
1?
0@
0A
0B
0C
1~
1}
1{
0x
0u
0~
#160000
1#
0!
1o
0k
1p
0l
1D
0|
0{
0O
0?
#165000
1!
1k
1l
0D
#170000
0#
0!
0o
0k
0p
0l
1D
#175000
1!
1k
1l
0D
1q
1r
0n
1K
1C
#180000
0!
0k
0l
1D
#185000
1!
1k
1l
0D
1s
0q
1n
1L
0K
1B
0C
#190000
0!
0k
0l
1D
#195000
1!
1k
1l
0D
1q
1t
0r
0n
1K
1C
1u
#200000
0!
0k
0l
1D
#205000
1!
1k
1l
0D
1v
0s
0q
0w
0u
0t
1n
1M
0L
0K
1A
0B
0C
1x
1w
1u
0x
#210000
0!
0k
0l
1D
#215000
1!
1k
1l
0D
1q
1r
0n
1K
1C
#220000
0!
0k
0l
1D
#225000
1!
1k
1l
0D
1s
0q
1n
1L
0K
1B
0C
#230000
0"
0!
0m
0k
0l
1D
0n
#235000
1!
1k
1l
0D
#240000
0!
0k
0l
1D
#245000
1!
1k
1l
0D
#250000
0!
0k
0l
1D
#255000
1!
1k
1l
0D
#260000
1"
0!
1m
0k
0l
1D
1n
#265000
1!
1k
1l
0D
1q
1t
0r
0n
1K
1C
0w
0u
1x
#270000
0!
0k
0l
1D
#275000
1!
1k
1l
0D
1y
0v
0s
0q
1z
0x
1w
1u
0t
1n
1N
0M
0L
0K
1@
0A
0B
0C
1{
0z
1x
0u
0{
#280000
0!
0k
0l
1D
#285000
1!
1k
1l
0D
1q
1r
0n
1K
1C
#290000
0!
0k
0l
1D
#295000
1!
1k
1l
0D
1s
0q
1n
1L
0K
1B
0C
#300000
0!
0k
0l
1D
#305000
1!
1k
1l
0D
1q
1t
0r
0n
1K
1C
1u
#310000
0!
0k
0l
1D
#315000
1!
1k
1l
0D
1v
0s
0q
0w
0u
0t
1n
1M
0L
0K
1A
0B
0C
1z
0x
1w
1u
1{
0z
1x
0{
#320000
0!
0k
0l
1D
#325000
1!
1k
1l
0D
1q
1r
0n
1K
1C
#330000
0!
0k
0l
1D
#335000
1!
1k
1l
0D
1s
0q
1n
1L
0K
1B
0C
#340000
0!
0k
0l
1D
#345000
1!
1k
1l
0D
1q
1t
0r
0n
1K
1C
0w
0u
1z
0x
1{
#350000
0!
0k
0l
1D
#355000
1!
1k
1l
0D
1|
0y
0v
0s
0q
0}
0{
0z
1x
1w
1u
0t
1n
1O
0N
0M
0L
0K
1?
0@
0A
0B
0C
1~
1}
1{
0x
0u
0~
#360000
0!
0k
0l
1D
#365000
1!
1k
1l
0D
1q
1r
0n
1K
1C
#370000
0!
0k
0l
1D
#375000
1!
1k
1l
0D
1s
0q
1n
1L
0K
1B
0C
#380000
0!
0k
0l
1D
#385000
1!
1k
1l
0D
1q
1t
0r
0n
1K
1C
1u
#390000
0!
0k
0l
1D
#395000
1!
1k
1l
0D
1v
0s
0q
0w
0u
0t
1n
1M
0L
0K
1A
0B
0C
1x
1w
1u
0x
#400000
0!
0k
0l
1D
#405000
1!
1k
1l
0D
1q
1r
0n
1K
1C
#410000
0!
0k
0l
1D
#415000
1!
1k
1l
0D
1s
0q
1n
1L
0K
1B
0C
#420000
0!
0k
0l
1D
#425000
1!
1k
1l
0D
1q
1t
0r
0n
1K
1C
0w
0u
1x
#430000
0!
0k
0l
1D
#435000
1!
1k
1l
0D
1y
0v
0s
0q
1z
0x
1w
1u
0t
1n
1N
0M
0L
0K
1@
0A
0B
0C
0}
0{
0z
1x
0u
1~
1}
1{
0~
#440000
0!
0k
0l
1D
#445000
1!
1k
1l
0D
1q
1r
0n
1K
1C
#450000
0!
0k
0l
1D
#455000
1!
1k
1l
0D
1s
0q
1n
1L
0K
1B
0C
#460000
0!
0k
0l
1D
#465000
1!
1k
1l
0D
1q
1t
0r
0n
1K
1C
1u
#470000
0!
0k
0l
1D
#475000
1!
1k
1l
0D
1v
0s
0q
0w
0u
0t
1n
1M
0L
0K
1A
0B
0C
1z
0x
1w
1u
0}
0{
0z
1x
1~
1}
1{
0~
#480000
0!
0k
0l
1D
#485000
1!
1k
1l
0D
1q
1r
0n
1K
1C
#490000
0!
0k
0l
1D
#495000
1!
1k
1l
0D
1s
0q
1n
1L
0K
1B
0C
#500000
0!
0k
0l
1D
#505000
1!
1k
1l
0D
1q
1t
0r
0n
1K
1C
0w
0u
1z
0x
0}
0{
1~
#510000
0!
0k
0l
1D
#515000
1!
1k
1l
0D
1!!
0|
0y
0v
0s
0q
1"!
0~
1}
1{
0z
1x
1w
1u
0t
1n
1P
0O
0N
0M
0L
0K
1>
0?
0@
0A
0B
0C
1#!
0"!
1~
0{
0x
0u
0#!
#520000
0!
0k
0l
1D
#525000
1!
1k
1l
0D
1q
1r
0n
1K
1C
#530000
0!
0k
0l
1D
#535000
1!
1k
1l
0D
1s
0q
1n
1L
0K
1B
0C
#540000
0!
0k
0l
1D
#545000
1!
1k
1l
0D
1q
1t
0r
0n
1K
1C
1u
#550000
0!
0k
0l
1D
#555000
1!
1k
1l
0D
1v
0s
0q
0w
0u
0t
1n
1M
0L
0K
1A
0B
0C
1x
1w
1u
0x
#560000
0!
0k
0l
1D
#565000
1!
1k
1l
0D
1q
1r
0n
1K
1C
#570000
0!
0k
0l
1D
#575000
1!
1k
1l
0D
1s
0q
1n
1L
0K
1B
0C
#580000
0!
0k
0l
1D
#585000
1!
1k
1l
0D
1q
1t
0r
0n
1K
1C
0w
0u
1x
#590000
0!
0k
0l
1D
#595000
1!
1k
1l
0D
1y
0v
0s
0q
1z
0x
1w
1u
0t
1n
1N
0M
0L
0K
1@
0A
0B
0C
1{
0z
1x
0u
0{
#600000
0!
0k
0l
1D
#605000
1!
1k
1l
0D
1q
1r
0n
1K
1C
#610000
0!
0k
0l
1D
#615000
1!
1k
1l
0D
1s
0q
1n
1L
0K
1B
0C
#620000
0!
0k
0l
1D
#625000
1!
1k
1l
0D
1q
1t
0r
0n
1K
1C
1u
#630000
0!
0k
0l
1D
#635000
1!
1k
1l
0D
1v
0s
0q
0w
0u
0t
1n
1M
0L
0K
1A
0B
0C
1z
0x
1w
1u
1{
0z
1x
0{
#640000
0!
0k
0l
1D
#645000
1!
1k
1l
0D
1q
1r
0n
1K
1C
#650000
0!
0k
0l
1D
#655000
1!
1k
1l
0D
1s
0q
1n
1L
0K
1B
0C
#660000
0!
0k
0l
1D
#665000
1!
1k
1l
0D
1q
1t
0r
0n
1K
1C
0w
0u
1z
0x
1{
#670000
0!
0k
0l
1D
#675000
1!
1k
1l
0D
1|
0y
0v
0s
0q
0}
0{
0z
1x
1w
1u
0t
1n
1O
0N
0M
0L
0K
1?
0@
0A
0B
0C
1"!
0~
1}
1{
0x
0u
1#!
0"!
1~
0#!
#680000
0!
0k
0l
1D
#685000
1!
1k
1l
0D
1q
1r
0n
1K
1C
#690000
0!
0k
0l
1D
#695000
1!
1k
1l
0D
1s
0q
1n
1L
0K
1B
0C
#700000
0!
0k
0l
1D
#705000
1!
1k
1l
0D
1q
1t
0r
0n
1K
1C
1u
#710000
0!
0k
0l
1D
#715000
1!
1k
1l
0D
1v
0s
0q
0w
0u
0t
1n
1M
0L
0K
1A
0B
0C
1x
1w
1u
0x
#720000
0!
0k
0l
1D
#725000
1!
1k
1l
0D
1q
1r
0n
1K
1C
#730000
0!
0k
0l
1D
#735000
1!
1k
1l
0D
1s
0q
1n
1L
0K
1B
0C
#740000
0!
0k
0l
1D
#745000
1!
1k
1l
0D
1q
1t
0r
0n
1K
1C
0w
0u
1x
#750000
0!
0k
0l
1D
#755000
1!
1k
1l
0D
1y
0v
0s
0q
1z
0x
1w
1u
0t
1n
1N
0M
0L
0K
1@
0A
0B
0C
0}
0{
0z
1x
0u
1"!
0~
1}
1{
1#!
0"!
1~
0#!
#760000
0!
0k
0l
1D
#765000
1!
1k
1l
0D
1q
1r
0n
1K
1C
#770000
0!
0k
0l
1D
#775000
1!
1k
1l
0D
1s
0q
1n
1L
0K
1B
0C
#780000
0!
0k
0l
1D
#785000
1!
1k
1l
0D
1q
1t
0r
0n
1K
1C
1u
#790000
0!
0k
0l
1D
#795000
1!
1k
1l
0D
1v
0s
0q
0w
0u
0t
1n
1M
0L
0K
1A
0B
0C
1z
0x
1w
1u
0}
0{
0z
1x
1"!
0~
1}
1{
1#!
0"!
1~
0#!
#800000
0!
0k
0l
1D
#805000
1!
1k
1l
0D
1q
1r
0n
1K
1C
#810000
0!
0k
0l
1D
#815000
1!
1k
1l
0D
1s
0q
1n
1L
0K
1B
0C
#820000
0!
0k
0l
1D
#825000
1!
1k
1l
0D
1q
1t
0r
0n
1K
1C
0w
0u
1z
0x
0}
0{
1"!
0~
1#!
#830000
0!
0k
0l
1D
#835000
1!
1k
1l
0D
1$!
0!!
0|
0y
0v
0s
0q
0%!
0#!
0"!
1~
1}
1{
0z
1x
1w
1u
0t
1n
1Q
0P
0O
0N
0M
0L
0K
1=
0>
0?
0@
0A
0B
0C
1&!
1%!
1#!
0~
0{
0x
0u
0&!
#840000
0!
0k
0l
1D
#845000
1!
1k
1l
0D
1q
1r
0n
1K
1C
#850000
0!
0k
0l
1D
#855000
1!
1k
1l
0D
1s
0q
1n
1L
0K
1B
0C
#860000
0!
0k
0l
1D
#865000
1!
1k
1l
0D
1q
1t
0r
0n
1K
1C
1u
#870000
0!
0k
0l
1D
#875000
1!
1k
1l
0D
1v
0s
0q
0w
0u
0t
1n
1M
0L
0K
1A
0B
0C
1x
1w
1u
0x
#880000
0!
0k
0l
1D
#885000
1!
1k
1l
0D
1q
1r
0n
1K
1C
#890000
0!
0k
0l
1D
#895000
1!
1k
1l
0D
1s
0q
1n
1L
0K
1B
0C
#900000
0!
0k
0l
1D
#905000
1!
1k
1l
0D
1q
1t
0r
0n
1K
1C
0w
0u
1x
#910000
0!
0k
0l
1D
#915000
1!
1k
1l
0D
1y
0v
0s
0q
1z
0x
1w
1u
0t
1n
1N
0M
0L
0K
1@
0A
0B
0C
1{
0z
1x
0u
0{
#920000
0!
0k
0l
1D
#925000
1!
1k
1l
0D
1q
1r
0n
1K
1C
#930000
0!
0k
0l
1D
#935000
1!
1k
1l
0D
1s
0q
1n
1L
0K
1B
0C
#940000
0!
0k
0l
1D
#945000
1!
1k
1l
0D
1q
1t
0r
0n
1K
1C
1u
#950000
0!
0k
0l
1D
#955000
1!
1k
1l
0D
1v
0s
0q
0w
0u
0t
1n
1M
0L
0K
1A
0B
0C
1z
0x
1w
1u
1{
0z
1x
0{
#960000
0!
0k
0l
1D
#965000
1!
1k
1l
0D
1q
1r
0n
1K
1C
#970000
0!
0k
0l
1D
#975000
1!
1k
1l
0D
1s
0q
1n
1L
0K
1B
0C
#980000
0!
0k
0l
1D
#985000
1!
1k
1l
0D
1q
1t
0r
0n
1K
1C
0w
0u
1z
0x
1{
#990000
0!
0k
0l
1D
#995000
1!
1k
1l
0D
1|
0y
0v
0s
0q
0}
0{
0z
1x
1w
1u
0t
1n
1O
0N
0M
0L
0K
1?
0@
0A
0B
0C
1~
1}
1{
0x
0u
0~
